﻿
DisplayName "グランゴルド城 2F"



EVENT   1
 PAGE   1
  250(bytes(0x04,0x08,0x6f,0x3a,0x0c,0x52,0x50,0x47,0x3a,0x3a,0x53,0x45,0x08,0x3a,0x0a,0x40,0x6e,0x61,0x6d,0x65,0x49,0x22,0x09,0x4d,0x6f,0x76,0x65,0x06,0x3a,0x06,0x45,0x54,0x3a,0x0b,0x40,0x70,0x69,0x74,0x63,0x68,0x69,0x69,0x3a,0x0c,0x40,0x76,0x6f,0x6c,0x75,0x6d,0x65,0x69,0x55))
  TeleportPlayer(0,176,30,27,2,0)
  0()



EVENT   2
 PAGE   1
  250(bytes(0x04,0x08,0x6f,0x3a,0x0c,0x52,0x50,0x47,0x3a,0x3a,0x53,0x45,0x08,0x3a,0x0a,0x40,0x6e,0x61,0x6d,0x65,0x49,0x22,0x09,0x4d,0x6f,0x76,0x65,0x06,0x3a,0x06,0x45,0x54,0x3a,0x0b,0x40,0x70,0x69,0x74,0x63,0x68,0x69,0x69,0x3a,0x0c,0x40,0x76,0x6f,0x6c,0x75,0x6d,0x65,0x69,0x55))
  TeleportPlayer(0,176,57,22,2,0)
  0()



EVENT   3
 PAGE   1
  250(bytes(0x04,0x08,0x6f,0x3a,0x0c,0x52,0x50,0x47,0x3a,0x3a,0x53,0x45,0x08,0x3a,0x0a,0x40,0x6e,0x61,0x6d,0x65,0x49,0x22,0x09,0x4d,0x6f,0x76,0x65,0x06,0x3a,0x06,0x45,0x54,0x3a,0x0b,0x40,0x70,0x69,0x74,0x63,0x68,0x69,0x69,0x3a,0x0c,0x40,0x76,0x6f,0x6c,0x75,0x6d,0x65,0x69,0x55))
  TeleportPlayer(0,176,3,22,2,0)
  0()



EVENT   4
 PAGE   1
  // condition: switch 4 is ON
  0()
 PAGE   2
  // condition: switch 5 is ON
  0()
 PAGE   3
  // condition: variable 1063 >= 13
  0()



EVENT   5
 PAGE   1
  If(12,"unlock_level < 1")
   ShowMessageFace("",0,0,2,1)
   ShowMessage("The chest is locked.")
   EndEventProcessing()
   0()
  EndIf()
  250(bytes(0x04,0x08,0x6f,0x3a,0x0c,0x52,0x50,0x47,0x3a,0x3a,0x53,0x45,0x08,0x3a,0x0a,0x40,0x6e,0x61,0x6d,0x65,0x49,0x22,0x0a,0x43,0x68,0x65,0x73,0x74,0x06,0x3a,0x06,0x45,0x54,0x3a,0x0b,0x40,0x70,0x69,0x74,0x63,0x68,0x69,0x69,0x3a,0x0c,0x40,0x76,0x6f,0x6c,0x75,0x6d,0x65,0x69,0x55))
  205(0,bytes(0x04,0x08,0x6f,0x3a,0x13,0x52,0x50,0x47,0x3a,0x3a,0x4d,0x6f,0x76,0x65,0x52,0x6f,0x75,0x74,0x65,0x09,0x3a,0x0c,0x40,0x72,0x65,0x70,0x65,0x61,0x74,0x46,0x3a,0x0f,0x40,0x73,0x6b,0x69,0x70,0x70,0x61,0x62,0x6c,0x65,0x46,0x3a,0x0a,0x40,0x77,0x61,0x69,0x74,0x54,0x3a,0x0a,0x40,0x6c,0x69,0x73,0x74,0x5b,0x0b,0x6f,0x3a,0x15,0x52,0x50,0x47,0x3a,0x3a,0x4d,0x6f,0x76,0x65,0x43,0x6f,0x6d,0x6d,0x61,0x6e,0x64,0x07,0x3a,0x0a,0x40,0x63,0x6f,0x64,0x65,0x69,0x29,0x3a,0x10,0x40,0x70,0x61,0x72,0x61,0x6d,0x65,0x74,0x65,0x72,0x73,0x5b,0x00,0x6f,0x3b,0x0a,0x07,0x3b,0x0b,0x69,0x16,0x3b,0x0c,0x5b,0x00,0x6f,0x3b,0x0a,0x07,0x3b,0x0b,0x69,0x14,0x3b,0x0c,0x5b,0x06,0x69,0x08,0x6f,0x3b,0x0a,0x07,0x3b,0x0b,0x69,0x17,0x3b,0x0c,0x5b,0x00,0x6f,0x3b,0x0a,0x07,0x3b,0x0b,0x69,0x14,0x3b,0x0c,0x5b,0x06,0x69,0x08,0x6f,0x3b,0x0a,0x07,0x3b,0x0b,0x69,0x00,0x3b,0x0c,0x5b,0x00))
  ChangeSelfSwitch("A",0)
  ChangeInventoryWeapon(225,0,0,1,false)
  0()
 PAGE   2
  // condition: self-switch A is ON
  0()



EVENT   6
 PAGE   1
  217()
  241(bytes(0x04,0x08,0x6f,0x3a,0x0d,0x52,0x50,0x47,0x3a,0x3a,0x42,0x47,0x4d,0x08,0x3a,0x0a,0x40,0x6e,0x61,0x6d,0x65,0x49,0x22,0x0c,0x62,0x6f,0x73,0x73,0x30,0x2d,0x32,0x06,0x3a,0x06,0x45,0x54,0x3a,0x0c,0x40,0x76,0x6f,0x6c,0x75,0x6d,0x65,0x69,0x69,0x3a,0x0b,0x40,0x70,0x69,0x74,0x63,0x68,0x69,0x69))
  PictureDisplay(5,"80_lilith2_st01b",0,0,0,0,100,100,0,0)
  PictureMove(5,null,0,0,0,0,100,100,255,0,60,true)
  ShowMessageFace("lilith2_fc1",0,0,2,1)
  ShowMessage("【リリス】")
  ShowMessage("市内でのテロ騒ぎに、城内への侵入者……")
  ShowMessage("やはり、全てはあなた達の仕業でしたか。")
  If(0,4,0)
   ShowMessageFace("alice_fc6",1,0,2,2)
   ShowMessage("【アリス】")
   ShowMessage("リリス……ずいぶんと派手な真似をしたものだな。")
   ShowMessage("王妃の椅子に座り、王をはじめ一国丸ごと堕落させるとは！")
   ShowMessageFace("alice_fc6",1,0,2,3)
   ShowMessage("【アリス】")
   ShowMessage("しかし、そんな無法も今日までだ！")
   ShowMessage("貴様を倒して、グランゴルドを解放させてもらうぞ！")
   0()
  EndIf()
  If(0,5,0)
   ShowMessageFace("iriasu_fc4",7,0,2,4)
   ShowMessage("【イリアス】")
   ShowMessage("ずいぶんと大それた計略ですね、リリス……")
   ShowMessage("王妃として君臨し、王も民もまとめて堕落させてしまうとは。")
   ShowMessageFace("iriasu_fc4",7,0,2,5)
   ShowMessage("【イリアス】")
   ShowMessage("しかし、今日こそ年貢の納め時！")
   ShowMessage("あなたの汚い企てからグランゴルドを解放します！")
   0()
  EndIf()
  If(4,382,0)
   ShowMessageFace("morrigan_fc1",0,0,2,6)
   ShowMessage("【モリガン】")
   ShowMessage("姉妹喧嘩も、百年ぶりだな！")
   0()
  EndIf()
  If(4,203,0)
   ShowMessageFace("tatunoko_k_fc1",1,0,2,7)
   ShowMessage("【たつこ】")
   ShowMessage("海軍は無法を許さないのです！")
   0()
  EndIf()
  ShowMessageFace("lilith2_fc1",0,0,2,8)
  ShowMessage("【リリス】")
  ShowMessage("……あなた達は、大きな思い違いをしていますね。")
  ShowMessageFace("lilith2_fc1",0,0,2,9)
  ShowMessage("【リリス】")
  ShowMessage("一つの町程度ならともかく、一国丸ごと堕落させるほどの芸当……")
  ShowMessage("いかに私達姉妹でも、流石に手に余ります。")
  If(0,4,0)
   ShowMessageFace("alice_fc6",0,0,2,10)
   ShowMessage("【アリス】")
   ShowMessage("何だと！？　ならば――")
   PictureClear(5)
   241(bytes(0x04,0x08,0x6f,0x3a,0x0d,0x52,0x50,0x47,0x3a,0x3a,0x42,0x47,0x4d,0x08,0x3a,0x0a,0x40,0x6e,0x61,0x6d,0x65,0x49,0x22,0x0c,0x62,0x6f,0x73,0x73,0x30,0x2d,0x33,0x06,0x3a,0x06,0x45,0x54,0x3a,0x0c,0x40,0x76,0x6f,0x6c,0x75,0x6d,0x65,0x69,0x69,0x3a,0x0b,0x40,0x70,0x69,0x74,0x63,0x68,0x69,0x69))
   ShowMessageFace("",0,0,2,11)
   ShowMessage("【？？？】")
   ShowMessage("そう……全ては、ウチの仕業よ。")
   ShowMessage("傾国の余興、しかと楽しませてもろうたわ……")
   ShowMessageFace("alice_fc6",0,0,2,12)
   ShowMessage("【アリス】")
   ShowMessage("そんな……！　この声、まさか――")
   ShowMessageFace("",0,0,2,13)
   ShowMessage("【？？？】")
   ShowMessage("国を傾け、王を蕩かし、民を嫐る――")
   ShowMessage("全てはウチのお家芸。")
   0()
  EndIf()
  If(0,5,0)
   ShowMessageFace("iriasu_fc4",5,0,2,14)
   ShowMessage("【イリアス】")
   ShowMessage("どういう事なのです？")
   ShowMessage("ならば、いったい何者が――")
   PictureClear(5)
   ShowMessageFace("",0,0,2,15)
   ShowMessage("【？？？】")
   ShowMessage("ずいぶん物忘れが激しいのう、イリアス。")
   ShowMessage("傾国こそ、ウチの悦びと忘れたか……？")
   ShowMessageFace("iriasu_fc4",5,0,2,16)
   ShowMessage("【イリアス】")
   ShowMessage("まさか、そんな――")
   ShowMessage("あなたが黒幕だったなど――")
   ShowMessageFace("",0,0,2,17)
   ShowMessage("【？？？】")
   ShowMessage("忘れたか？　ウチが傾けた国の数――")
   ShowMessage("忘れたか？　ウチが食らった民の悲鳴――")
   0()
  EndIf()
  212(8,542,false)
  Wait(60)
  ChangeSwitch(31,31,0)
  Wait(60)
  PictureDisplay(5,"80_tamamo_st61b",0,0,0,0,100,100,0,0)
  PictureMove(5,null,0,0,0,0,100,100,255,0,60,true)
  ShowMessageFace("tamamo_fc3",0,0,2,18)
  ShowMessage("【玉藻】")
  ShowMessage("六祖が一人、白面金毛九尾の大化生――")
  ShowMessage("玉藻の名、その魂に刻むが良い。")
  If(0,4,0)
   ShowMessageFace("alice_fc6",0,0,2,19)
   ShowMessage("【アリス】")
   ShowMessage("たまも、なのか……？　いや、違う！")
   ShowMessage("貴様は、余の知る玉藻ではないな！")
   0()
  EndIf()
  If(0,5,0)
   ShowMessageFace("iriasu_fc4",7,0,2,20)
   ShowMessage("【イリアス】")
   ShowMessage("玉藻……！　いつ封印を破って――")
   ShowMessage("しかし、たまもは確かに狐神社にいたはず。")
   ShowMessageFace("iriasu_fc4",5,0,2,21)
   ShowMessage("【イリアス】")
   ShowMessage("まさか、あなたも――")
   ShowMessage("あの異世界の熾天使と同じように――")
   0()
  EndIf()
  ShowMessageFace("tamamo_fc3",0,0,2,22)
  ShowMessage("【玉藻】")
  ShowMessage("その通り……ウチは、お主達の知る玉藻にあらず。")
  ShowMessage("闇が征した世界より、足を運んだ別の玉藻よ！")
  If(0,4,0)
   ShowMessageFace("alice_fc6",0,0,2,23)
   ShowMessage("【アリス】")
   ShowMessage("天使のみならず、妖魔も並行世界から侵入していただと……？")
   ShowMessage("それも、六祖の一人などという大物が――")
   0()
  EndIf()
  If(0,5,0)
   ShowMessageFace("iriasu_fc4",5,0,2,24)
   ShowMessage("【イリアス】")
   ShowMessage("天使だけでなく、妖魔まで並行世界から来ていたとは……")
   ShowMessage("しかも、六祖クラスの大物が……")
   0()
  EndIf()
  PictureDisplay(6,"80_lilith2_st01b",0,0,-200,0,100,100,255,0)
  PictureDisplay(5,"80_tamamo_st61b",0,0,200,0,100,100,255,0)
  ShowMessageFace("lilith2_fc1",0,0,2,25)
  ShowMessage("【リリス】")
  ShowMessage("そういう訳で……今回の件、玉藻様にご足労頂きました。")
  ShowMessage("我々三姉妹は、お手伝いをしたに過ぎません。")
  If(0,6,0)
   ShowMessageFace("sonia_fc3",7,0,2,26)
   ShowMessage("【ソニア】")
   ShowMessage("ど、どうするの……！？")
   ShowMessage("二人同時に来られたら……")
   0()
  Else()
   ShowMessageFace("ruka_fc1",0,0,2,27)
   ShowMessage("【ルカ】")
   ShowMessage("ど、どうするんだ……？")
   ShowMessage("二人同時に来られたら……")
   0()
  EndIf()
  PictureClear(6)
  PictureDisplay(5,"80_tamamo_st61b",0,0,0,0,100,100,255,0)
  ShowMessageFace("tamamo_fc3",0,0,2,28)
  ShowMessage("【玉藻】")
  ShowMessage("二人掛かりなど、無粋な事はせん……")
  ShowMessage("ウチ一人で、お主達全員の相手をしてくれよう。")
  PictureDisplay(5,"80_tamamo_st62b",0,0,0,0,100,100,255,0)
  ShowMessageFace("tamamo_fc3",1,0,2,29)
  ShowMessage("【玉藻】")
  ShowMessage("さあ、掛かってくるが良い。")
  ShowMessage("ほんの少しでも、ウチを愉しませてみよ……")
  If(0,4,0)
   ShowMessageFace("alice_fc6",0,0,2,30)
   ShowMessage("【アリス】")
   ShowMessage("この強大な魔力……我々に勝ち目など……")
   0()
  EndIf()
  If(0,5,0)
   ShowMessageFace("iriasu_fc4",2,0,2,31)
   ShowMessage("【イリアス】")
   ShowMessage("六祖が相手など、今の我々では勝ち目など……")
   0()
  EndIf()
  ShowMessageFace("ruka_fc1",0,0,2,32)
  ShowMessage("【ルカ】")
  ShowMessage("勝てないからって、諦めるわけにはいかない！")
  ShowMessage("行くぞっ！！")
  If(4,129,0)
   ShowMessageFace("brunhild_fc1",0,0,2,33)
   ShowMessage("【ヒルデ】")
   ShowMessage("力量差は圧倒的……")
   ShowMessage("でも、やるしかないよ……")
   0()
  EndIf()
  If(4,79,0)
   ShowMessageFace("nuruko_fc1",0,0,2,34)
   ShowMessage("【ヌルコ】")
   ShowMessage("きゅー！")
   0()
  EndIf()
  PictureClear(5)
  SetBattleBGM(bytes(0x04,0x08,0x6f,0x3a,0x0d,0x52,0x50,0x47,0x3a,0x3a,0x42,0x47,0x4d,0x08,0x3a,0x0a,0x40,0x6e,0x61,0x6d,0x65,0x49,0x22,0x10,0x62,0x6f,0x73,0x73,0x5f,0x72,0x69,0x6b,0x75,0x73,0x6f,0x06,0x3a,0x06,0x45,0x54,0x3a,0x0c,0x40,0x76,0x6f,0x6c,0x75,0x6d,0x65,0x69,0x69,0x3a,0x0b,0x40,0x70,0x69,0x74,0x63,0x68,0x69,0x69))
  RunCommonEvent(10)
  Battle(0,874,false,false)
  RunCommonEvent(11)
  SetBattleBGM(bytes(0x04,0x08,0x6f,0x3a,0x0d,0x52,0x50,0x47,0x3a,0x3a,0x42,0x47,0x4d,0x08,0x3a,0x0a,0x40,0x6e,0x61,0x6d,0x65,0x49,0x22,0x0b,0x62,0x61,0x74,0x74,0x6c,0x65,0x06,0x3a,0x06,0x45,0x54,0x3a,0x0c,0x40,0x76,0x6f,0x6c,0x75,0x6d,0x65,0x69,0x69,0x3a,0x0b,0x40,0x70,0x69,0x74,0x63,0x68,0x69,0x69))
  355("gain_medal(3008)")
  241(bytes(0x04,0x08,0x6f,0x3a,0x0d,0x52,0x50,0x47,0x3a,0x3a,0x42,0x47,0x4d,0x08,0x3a,0x0a,0x40,0x6e,0x61,0x6d,0x65,0x49,0x22,0x0c,0x62,0x6f,0x73,0x73,0x30,0x2d,0x33,0x06,0x3a,0x06,0x45,0x54,0x3a,0x0c,0x40,0x76,0x6f,0x6c,0x75,0x6d,0x65,0x69,0x69,0x3a,0x0b,0x40,0x70,0x69,0x74,0x63,0x68,0x69,0x69))
  PictureDisplay(5,"80_tamamo_st63b",0,0,0,0,100,100,0,0)
  PictureMove(5,null,0,0,0,0,100,100,255,0,30,true)
  ShowMessageFace("tamamo_fc3",2,0,2,35)
  ShowMessage("【玉藻】")
  ShowMessage("なるほど、かなりの実力よ。だが……！")
  212(-1,640,true)
  ShowMessageFace("ruka_fc1",0,0,2,36)
  ShowMessage("【ルカ】")
  ShowMessage("うわぁっ！！")
  ChangeSwitch(2265,2265,0)
  EndEventProcessing()
  0()
 PAGE   2
  // condition: variable 1001 >= 29
  0()



EVENT   7
 PAGE   1
  250(bytes(0x04,0x08,0x6f,0x3a,0x0c,0x52,0x50,0x47,0x3a,0x3a,0x53,0x45,0x08,0x3a,0x0a,0x40,0x6e,0x61,0x6d,0x65,0x49,0x22,0x0a,0x43,0x68,0x65,0x73,0x74,0x06,0x3a,0x06,0x45,0x54,0x3a,0x0b,0x40,0x70,0x69,0x74,0x63,0x68,0x69,0x69,0x3a,0x0c,0x40,0x76,0x6f,0x6c,0x75,0x6d,0x65,0x69,0x55))
  205(0,bytes(0x04,0x08,0x6f,0x3a,0x13,0x52,0x50,0x47,0x3a,0x3a,0x4d,0x6f,0x76,0x65,0x52,0x6f,0x75,0x74,0x65,0x09,0x3a,0x0c,0x40,0x72,0x65,0x70,0x65,0x61,0x74,0x46,0x3a,0x0f,0x40,0x73,0x6b,0x69,0x70,0x70,0x61,0x62,0x6c,0x65,0x46,0x3a,0x0a,0x40,0x77,0x61,0x69,0x74,0x54,0x3a,0x0a,0x40,0x6c,0x69,0x73,0x74,0x5b,0x0b,0x6f,0x3a,0x15,0x52,0x50,0x47,0x3a,0x3a,0x4d,0x6f,0x76,0x65,0x43,0x6f,0x6d,0x6d,0x61,0x6e,0x64,0x07,0x3a,0x0a,0x40,0x63,0x6f,0x64,0x65,0x69,0x29,0x3a,0x10,0x40,0x70,0x61,0x72,0x61,0x6d,0x65,0x74,0x65,0x72,0x73,0x5b,0x00,0x6f,0x3b,0x0a,0x07,0x3b,0x0b,0x69,0x16,0x3b,0x0c,0x5b,0x00,0x6f,0x3b,0x0a,0x07,0x3b,0x0b,0x69,0x14,0x3b,0x0c,0x5b,0x06,0x69,0x08,0x6f,0x3b,0x0a,0x07,0x3b,0x0b,0x69,0x17,0x3b,0x0c,0x5b,0x00,0x6f,0x3b,0x0a,0x07,0x3b,0x0b,0x69,0x14,0x3b,0x0c,0x5b,0x06,0x69,0x08,0x6f,0x3b,0x0a,0x07,0x3b,0x0b,0x69,0x00,0x3b,0x0c,0x5b,0x00))
  ChangeSelfSwitch("A",0)
  ChangeInventory_Item(29,0,0,1)
  0()
 PAGE   2
  // condition: self-switch A is ON
  0()



EVENT   8
 PAGE   1
  // condition: switch 31 is ON
  0()



EVENT   9
 PAGE   1
  // condition: switch 32 is ON
  0()
 PAGE   2
  // condition: switch 33 is ON
  0()



EVENT   10
 PAGE   1
  // condition: switch 34 is ON
  0()
 PAGE   2
  // condition: switch 35 is ON
  0()



EVENT   11
 PAGE   1
  // condition: switch 34 is ON
  0()
 PAGE   2
  // condition: switch 35 is ON
  0()



EVENT   12
 PAGE   1
  250(bytes(0x04,0x08,0x6f,0x3a,0x0c,0x52,0x50,0x47,0x3a,0x3a,0x53,0x45,0x08,0x3a,0x0a,0x40,0x6e,0x61,0x6d,0x65,0x49,0x22,0x0a,0x49,0x74,0x65,0x6d,0x31,0x06,0x3a,0x06,0x45,0x54,0x3a,0x0b,0x40,0x70,0x69,0x74,0x63,0x68,0x69,0x69,0x3a,0x0c,0x40,0x76,0x6f,0x6c,0x75,0x6d,0x65,0x69,0x55))
  ChangeSelfSwitch("A",0)
  ChangeInventory_Item(22,0,0,1)
  0()
 PAGE   2
  // condition: self-switch A is ON
  0()



EVENT   13
 PAGE   1
  // condition: switch 4 is ON
  0()
 PAGE   2
  // condition: switch 5 is ON
  0()
 PAGE   3
  // condition: variable 1063 >= 13
  0()



EVENT   14
 PAGE   1
  // condition: switch 4 is ON
  0()
 PAGE   2
  // condition: switch 5 is ON
  0()
 PAGE   3
  // condition: variable 1063 >= 13
  0()



EVENT   15
 PAGE   1
  0()
 PAGE   2
  // condition: variable 1001 >= 29
  0()



EVENT   16
 PAGE   1
  0()
 PAGE   2
  // condition: variable 1001 >= 29
  0()



EVENT   17
 PAGE   1
  0()
 PAGE   2
  // condition: variable 1001 >= 29
  0()



EVENT   18
 PAGE   1
  241(bytes(0x04,0x08,0x6f,0x3a,0x0d,0x52,0x50,0x47,0x3a,0x3a,0x42,0x47,0x4d,0x08,0x3a,0x0a,0x40,0x6e,0x61,0x6d,0x65,0x49,0x22,0x0a,0x6b,0x69,0x6b,0x69,0x32,0x06,0x3a,0x06,0x45,0x54,0x3a,0x0c,0x40,0x76,0x6f,0x6c,0x75,0x6d,0x65,0x69,0x69,0x3a,0x0b,0x40,0x70,0x69,0x74,0x63,0x68,0x69,0x69))
  205(-1,bytes(0x04,0x08,0x6f,0x3a,0x13,0x52,0x50,0x47,0x3a,0x3a,0x4d,0x6f,0x76,0x65,0x52,0x6f,0x75,0x74,0x65,0x09,0x3a,0x0c,0x40,0x72,0x65,0x70,0x65,0x61,0x74,0x46,0x3a,0x0f,0x40,0x73,0x6b,0x69,0x70,0x70,0x61,0x62,0x6c,0x65,0x46,0x3a,0x0a,0x40,0x77,0x61,0x69,0x74,0x54,0x3a,0x0a,0x40,0x6c,0x69,0x73,0x74,0x5b,0x07,0x6f,0x3a,0x15,0x52,0x50,0x47,0x3a,0x3a,0x4d,0x6f,0x76,0x65,0x43,0x6f,0x6d,0x6d,0x61,0x6e,0x64,0x07,0x3a,0x0a,0x40,0x63,0x6f,0x64,0x65,0x69,0x15,0x3a,0x10,0x40,0x70,0x61,0x72,0x61,0x6d,0x65,0x74,0x65,0x72,0x73,0x5b,0x00,0x6f,0x3b,0x0a,0x07,0x3b,0x0b,0x69,0x00,0x3b,0x0c,0x5b,0x00))
  If(0,4,0)
   ShowMessageFace("alice_fc6",0,0,2,1)
   ShowMessage("【アリス】")
   ShowMessage("まさか、あいつは……！")
   0()
  EndIf()
  If(0,5,0)
   ShowMessageFace("iriasu_fc4",7,0,2,2)
   ShowMessage("【イリアス】")
   ShowMessage("まさか、あの者は……！")
   0()
  EndIf()
  205(-1,bytes(0x04,0x08,0x6f,0x3a,0x13,0x52,0x50,0x47,0x3a,0x3a,0x4d,0x6f,0x76,0x65,0x52,0x6f,0x75,0x74,0x65,0x09,0x3a,0x0c,0x40,0x72,0x65,0x70,0x65,0x61,0x74,0x46,0x3a,0x0f,0x40,0x73,0x6b,0x69,0x70,0x70,0x61,0x62,0x6c,0x65,0x46,0x3a,0x0a,0x40,0x77,0x61,0x69,0x74,0x54,0x3a,0x0a,0x40,0x6c,0x69,0x73,0x74,0x5b,0x08,0x6f,0x3a,0x15,0x52,0x50,0x47,0x3a,0x3a,0x4d,0x6f,0x76,0x65,0x43,0x6f,0x6d,0x6d,0x61,0x6e,0x64,0x07,0x3a,0x0a,0x40,0x63,0x6f,0x64,0x65,0x69,0x06,0x3a,0x10,0x40,0x70,0x61,0x72,0x61,0x6d,0x65,0x74,0x65,0x72,0x73,0x5b,0x00,0x6f,0x3b,0x0a,0x07,0x3b,0x0b,0x69,0x06,0x3b,0x0c,0x5b,0x00,0x6f,0x3b,0x0a,0x07,0x3b,0x0b,0x69,0x00,0x3b,0x0c,0x5b,0x00))
  RunCommonEvent(338)
  0()
 PAGE   2
  // condition: switch 2192 is ON
  0()



EVENT   19
 PAGE   1
  241(bytes(0x04,0x08,0x6f,0x3a,0x0d,0x52,0x50,0x47,0x3a,0x3a,0x42,0x47,0x4d,0x08,0x3a,0x0a,0x40,0x6e,0x61,0x6d,0x65,0x49,0x22,0x0a,0x6b,0x69,0x6b,0x69,0x32,0x06,0x3a,0x06,0x45,0x54,0x3a,0x0c,0x40,0x76,0x6f,0x6c,0x75,0x6d,0x65,0x69,0x69,0x3a,0x0b,0x40,0x70,0x69,0x74,0x63,0x68,0x69,0x69))
  205(-1,bytes(0x04,0x08,0x6f,0x3a,0x13,0x52,0x50,0x47,0x3a,0x3a,0x4d,0x6f,0x76,0x65,0x52,0x6f,0x75,0x74,0x65,0x09,0x3a,0x0c,0x40,0x72,0x65,0x70,0x65,0x61,0x74,0x46,0x3a,0x0f,0x40,0x73,0x6b,0x69,0x70,0x70,0x61,0x62,0x6c,0x65,0x46,0x3a,0x0a,0x40,0x77,0x61,0x69,0x74,0x54,0x3a,0x0a,0x40,0x6c,0x69,0x73,0x74,0x5b,0x07,0x6f,0x3a,0x15,0x52,0x50,0x47,0x3a,0x3a,0x4d,0x6f,0x76,0x65,0x43,0x6f,0x6d,0x6d,0x61,0x6e,0x64,0x07,0x3a,0x0a,0x40,0x63,0x6f,0x64,0x65,0x69,0x15,0x3a,0x10,0x40,0x70,0x61,0x72,0x61,0x6d,0x65,0x74,0x65,0x72,0x73,0x5b,0x00,0x6f,0x3b,0x0a,0x07,0x3b,0x0b,0x69,0x00,0x3b,0x0c,0x5b,0x00))
  If(0,4,0)
   ShowMessageFace("alice_fc6",0,0,2,1)
   ShowMessage("【アリス】")
   ShowMessage("まさか、あいつは……！")
   0()
  EndIf()
  If(0,5,0)
   ShowMessageFace("iriasu_fc4",7,0,2,2)
   ShowMessage("【イリアス】")
   ShowMessage("まさか、あの者は……！")
   0()
  EndIf()
  205(-1,bytes(0x04,0x08,0x6f,0x3a,0x13,0x52,0x50,0x47,0x3a,0x3a,0x4d,0x6f,0x76,0x65,0x52,0x6f,0x75,0x74,0x65,0x09,0x3a,0x0c,0x40,0x72,0x65,0x70,0x65,0x61,0x74,0x46,0x3a,0x0f,0x40,0x73,0x6b,0x69,0x70,0x70,0x61,0x62,0x6c,0x65,0x46,0x3a,0x0a,0x40,0x77,0x61,0x69,0x74,0x54,0x3a,0x0a,0x40,0x6c,0x69,0x73,0x74,0x5b,0x07,0x6f,0x3a,0x15,0x52,0x50,0x47,0x3a,0x3a,0x4d,0x6f,0x76,0x65,0x43,0x6f,0x6d,0x6d,0x61,0x6e,0x64,0x07,0x3a,0x0a,0x40,0x63,0x6f,0x64,0x65,0x69,0x06,0x3a,0x10,0x40,0x70,0x61,0x72,0x61,0x6d,0x65,0x74,0x65,0x72,0x73,0x5b,0x00,0x6f,0x3b,0x0a,0x07,0x3b,0x0b,0x69,0x00,0x3b,0x0c,0x5b,0x00))
  RunCommonEvent(338)
  0()
 PAGE   2
  // condition: switch 2192 is ON
  0()



EVENT   20
 PAGE   1
  241(bytes(0x04,0x08,0x6f,0x3a,0x0d,0x52,0x50,0x47,0x3a,0x3a,0x42,0x47,0x4d,0x08,0x3a,0x0a,0x40,0x6e,0x61,0x6d,0x65,0x49,0x22,0x0a,0x6b,0x69,0x6b,0x69,0x32,0x06,0x3a,0x06,0x45,0x54,0x3a,0x0c,0x40,0x76,0x6f,0x6c,0x75,0x6d,0x65,0x69,0x69,0x3a,0x0b,0x40,0x70,0x69,0x74,0x63,0x68,0x69,0x69))
  205(-1,bytes(0x04,0x08,0x6f,0x3a,0x13,0x52,0x50,0x47,0x3a,0x3a,0x4d,0x6f,0x76,0x65,0x52,0x6f,0x75,0x74,0x65,0x09,0x3a,0x0c,0x40,0x72,0x65,0x70,0x65,0x61,0x74,0x46,0x3a,0x0f,0x40,0x73,0x6b,0x69,0x70,0x70,0x61,0x62,0x6c,0x65,0x46,0x3a,0x0a,0x40,0x77,0x61,0x69,0x74,0x54,0x3a,0x0a,0x40,0x6c,0x69,0x73,0x74,0x5b,0x07,0x6f,0x3a,0x15,0x52,0x50,0x47,0x3a,0x3a,0x4d,0x6f,0x76,0x65,0x43,0x6f,0x6d,0x6d,0x61,0x6e,0x64,0x07,0x3a,0x0a,0x40,0x63,0x6f,0x64,0x65,0x69,0x15,0x3a,0x10,0x40,0x70,0x61,0x72,0x61,0x6d,0x65,0x74,0x65,0x72,0x73,0x5b,0x00,0x6f,0x3b,0x0a,0x07,0x3b,0x0b,0x69,0x00,0x3b,0x0c,0x5b,0x00))
  If(0,4,0)
   ShowMessageFace("alice_fc6",0,0,2,1)
   ShowMessage("【アリス】")
   ShowMessage("まさか、あいつは……！")
   0()
  EndIf()
  If(0,5,0)
   ShowMessageFace("iriasu_fc4",7,0,2,2)
   ShowMessage("【イリアス】")
   ShowMessage("まさか、あの者は……！")
   0()
  EndIf()
  205(-1,bytes(0x04,0x08,0x6f,0x3a,0x13,0x52,0x50,0x47,0x3a,0x3a,0x4d,0x6f,0x76,0x65,0x52,0x6f,0x75,0x74,0x65,0x09,0x3a,0x0c,0x40,0x72,0x65,0x70,0x65,0x61,0x74,0x46,0x3a,0x0f,0x40,0x73,0x6b,0x69,0x70,0x70,0x61,0x62,0x6c,0x65,0x46,0x3a,0x0a,0x40,0x77,0x61,0x69,0x74,0x54,0x3a,0x0a,0x40,0x6c,0x69,0x73,0x74,0x5b,0x07,0x6f,0x3a,0x15,0x52,0x50,0x47,0x3a,0x3a,0x4d,0x6f,0x76,0x65,0x43,0x6f,0x6d,0x6d,0x61,0x6e,0x64,0x07,0x3a,0x0a,0x40,0x63,0x6f,0x64,0x65,0x69,0x15,0x3a,0x10,0x40,0x70,0x61,0x72,0x61,0x6d,0x65,0x74,0x65,0x72,0x73,0x5b,0x00,0x6f,0x3b,0x0a,0x07,0x3b,0x0b,0x69,0x00,0x3b,0x0c,0x5b,0x00))
  RunCommonEvent(338)
  0()
 PAGE   2
  // condition: switch 2192 is ON
  0()



EVENT   21
 PAGE   1
  ShowMessageFace("queenant_fc1",1,0,2,1)
  ShowMessage("【クィーンアント】")
  ShowMessage("……………………")
  ShowMessageFace("",0,0,2,2)
  ShowMessage("クィーンアントは、自身の力至らなさに恥じているようだ……")
  0()
 PAGE   2
  // condition: variable 1001 >= 29
  0()



EVENT   22
 PAGE   1
  // condition: switch 4 is ON
  ShowMessageFace("iriasu_fc4",2,0,2,1)
  ShowMessage("【イリアス】")
  ShowMessage("あけてください……")
  ShowMessage("たすけてください……")
  If(0,2190,0)
   ShowMessageFace("alice_fc5",6,0,2,2)
   ShowMessage("【アリス】")
   ShowMessage("貴様、また捕まったのか！？")
   0()
  Else()
   ShowMessageFace("alice_fc5",6,0,2,3)
   ShowMessage("【アリス】")
   ShowMessage("貴様、捕まったのか！？")
   0()
  EndIf()
  ShowMessageFace("iriasu_fc4",2,0,2,4)
  ShowMessage("【イリアス】")
  ShowMessage("だしてください……")
  ShowMessage("おなかがへりました……")
  If(0,6,0)
   ShowMessageFace("sonia_fc2",2,0,2,5)
   ShowMessage("【ソニア】")
   ShowMessage("虚勢を張る気力もないなんて……")
   ShowMessage("相当にくたびれてるのね。")
   0()
  Else()
   ShowMessageFace("ruka_fc1",0,0,2,6)
   ShowMessage("【ルカ】")
   ShowMessage("虚勢を張る気力もないなんて……")
   ShowMessage("相当に追い込まれてるみたいだね。")
   0()
  EndIf()
  ShowMessageFace("dog_fc1",0,0,2,7)
  ShowMessage("【わんこ】")
  ShowMessage("く～ん、く～ん……")
  ShowMessageFace("slime_fc1",2,0,2,8)
  ShowMessage("【ぷるこ】")
  ShowMessage("たすけてー！")
  ShowMessageFace("alice_fc5",5,0,2,9)
  ShowMessage("【アリス】")
  ShowMessage("なんというポンコツ集団……")
  ShowMessage("しかしこの牢、外からも鍵が開けられんのだ。")
  If(12,"exist_party_persona_id?(391)")
   ShowMessageFace("mefist_fc2",0,0,2,10)
   ShowMessage("【メフィスト】")
   ShowMessage("まあ、鍵があったところで開けませんけどね。")
   0()
  Else()
   ShowMessageFace("mefist_fc1",0,0,2,11)
   ShowMessage("【メフィスト】")
   ShowMessage("まあ、鍵があったところで開けませんけどね。")
   0()
  EndIf()
  ShowMessageFace("iriasu_fc4",4,0,2,12)
  ShowMessage("【イリアス】")
  ShowMessage("……………………")
  If(0,6,0)
   ShowMessageFace("sonia_fc1",5,0,2,13)
   ShowMessage("【ソニア】")
   ShowMessage("こら！　いじめちゃダメでしょ！")
   0()
  Else()
   ShowMessageFace("ruka_fc1",0,0,2,14)
   ShowMessage("【ルカ】")
   ShowMessage("いじめないであげて……")
   0()
  EndIf()
  ShowMessageFace("alice_fc5",0,0,2,15)
  ShowMessage("【アリス】")
  ShowMessage("仕方ないな……")
  ShowMessage("リリスを倒して開けてやるから、待っていろ。")
  ShowMessageFace("iriasu_fc4",4,0,2,16)
  ShowMessage("【イリアス】")
  ShowMessage("……………………")
  ShowMessageFace("",0,0,2,17)
  ShowMessage("早くリリス三姉妹を倒して、出してあげよう……")
  0()
 PAGE   2
  // condition: switch 5 is ON
  ShowMessageFace("alice_fc5",1,0,2,1)
  ShowMessage("【アリス】")
  ShowMessage("グランゴルド城潜入作戦、成功だ！")
  If(0,2190,0)
   ShowMessageFace("iriasu_fc4",5,0,2,2)
   ShowMessage("【イリアス】")
   ShowMessage("まったく学んでいないではないですか！？")
   0()
  Else()
   ShowMessageFace("iriasu_fc4",5,0,2,3)
   ShowMessage("【イリアス】")
   ShowMessage("失敗しているではないですか！？")
   0()
  EndIf()
  ShowMessageFace("bunnyslime_fc1",2,0,2,4)
  ShowMessage("【うさこ】")
  ShowMessage("にんじん、たべたいよう……")
  ShowMessageFace("youko_fc1",2,0,2,5)
  ShowMessage("【もふゆ】")
  ShowMessage("あぶらあげ、たべたいよう……")
  ShowMessageFace("iriasu_fc4",2,0,2,6)
  ShowMessage("【イリアス】")
  ShowMessage("なんというポンコツ軍団なのでしょう……")
  ShowMessage("しかし、この牢は外側からでも開けられませんよ。")
  ShowMessageFace("iriasu_fc4",1,0,2,7)
  ShowMessage("【イリアス】")
  ShowMessage("まあ、鍵があったとしても開けませんけどね。")
  ShowMessageFace("alice_fc6",1,0,2,8)
  ShowMessage("【アリス】")
  ShowMessage("おのれ、このゲス女神め！")
  ShowMessageFace("iriasu_fc5",0,0,2,9)
  ShowMessage("【イリアス】")
  ShowMessage("ゲスとはなんですか！　魔王のくせに！")
  ShowMessageFace("alice_fc6",1,0,2,10)
  ShowMessage("【アリス】")
  ShowMessage("この女神！　女神！")
  ShowMessageFace("iriasu_fc5",0,0,2,11)
  ShowMessage("【イリアス】")
  ShowMessage("や～い、魔王！　魔王！")
  ShowMessageFace("ruka_fc1",0,0,2,12)
  ShowMessage("【ルカ】")
  ShowMessage("やれやれ……")
  If(12,"exist_party_persona_id?(391)")
   ShowMessageFace("mefist_fc2",2,0,2,13)
   ShowMessage("【メフィスト】")
   ShowMessage("我が学園の生徒以下ですね……")
   0()
  Else()
   ShowMessageFace("mefist_fc1",2,0,2,14)
   ShowMessage("【メフィスト】")
   ShowMessage("我が学園の生徒以下ですね……")
   0()
  EndIf()
  ShowMessageFace("alice_fc6",1,0,2,15)
  ShowMessage("【アリス】")
  ShowMessage("余は信じるぞ、この世にある光を！")
  ShowMessage("女神たる貴様が、目を背けた希望というものを！")
  ShowMessageFace("iriasu_fc5",0,0,2,16)
  ShowMessage("【イリアス】")
  ShowMessage("愚かな……ならば私は、希望とやらを奪い去ります。")
  ShowMessage("この地上と共に、滅びなさい！")
  If(0,6,0)
   ShowMessageFace("sonia_fc4",0,0,2,17)
   ShowMessage("【ソニア】")
   ShowMessage("ラスボス戦みたいな事を言ってないで……")
   ShowMessage("ほら、行くわよ。")
   0()
  Else()
   ShowMessageFace("ruka_fc1",0,0,2,18)
   ShowMessage("【ルカ】")
   ShowMessage("ラスボス戦みたいな事を言ってないで……")
   ShowMessage("さあ、行くよ。")
   0()
  EndIf()
  ShowMessageFace("iriasu_fc5",0,0,2,19)
  ShowMessage("【イリアス】")
  ShowMessage("ずっとそこで閉じこもっているのですね！")
  ShowMessageFace("alice_fc6",1,0,2,20)
  ShowMessage("【アリス】")
  ShowMessage("ふん！　この程度の牢、自力で脱出できるわ！")
  ShowMessageFace("alice_fc5",3,0,2,21)
  ShowMessage("【アリス】")
  ShowMessage("……………………")
  ShowMessageFace("ruka_fc1",0,0,2,22)
  ShowMessage("【ルカ】")
  ShowMessage("意地っ張りだなぁ……")
  ShowMessageFace("",0,0,2,23)
  ShowMessage("早くリリス三姉妹を倒して、出してあげよう……")
  0()
 PAGE   3
  // condition: variable 1063 >= 13
  0()



EVENT   23
 PAGE   1
  If(0,2194,1)
   ChangeSwitch(2194,2194,0)
   If(0,4,0)
    ShowMessageFace("alice_fc5",0,0,2,1)
    ShowMessage("【アリス】")
    ShowMessage("この牢、鍵がないな……")
    ShowMessage("魔力によって制御されているタイプか。")
    0()
   EndIf()
   If(0,5,0)
    ShowMessageFace("iriasu_fc4",2,0,2,2)
    ShowMessage("【イリアス】")
    ShowMessage("この牢、鍵がありませんね……")
    ShowMessage("魔力によって制御されているタイプのようです。")
    0()
   EndIf()
   If(12,"exist_party_persona_id?(391)")
    ShowMessageFace("mefist_fc2",0,0,2,3)
    ShowMessage("【メフィスト】")
    ShowMessage("この牢に施錠の魔術を施した者――")
    ShowMessage("すなわち王妃を倒せば、鍵が開くでしょう。")
    0()
   Else()
    ShowMessageFace("mefist_fc1",0,0,2,4)
    ShowMessage("【メフィスト】")
    ShowMessage("この牢に施錠の魔術を施した者――")
    ShowMessage("すなわち王妃を倒せば、鍵が開くでしょう。")
    0()
   EndIf()
   0()
  EndIf()
  0()
 PAGE   2
  // condition: variable 1001 >= 29
  0()



EVENT   24
 PAGE   1
  // condition: switch 2265 is ON
  RunCommonEvent(11)
  ChangeSwitch(2265,2265,1)
  205(-1,bytes(0x04,0x08,0x6f,0x3a,0x13,0x52,0x50,0x47,0x3a,0x3a,0x4d,0x6f,0x76,0x65,0x52,0x6f,0x75,0x74,0x65,0x09,0x3a,0x0c,0x40,0x72,0x65,0x70,0x65,0x61,0x74,0x46,0x3a,0x0f,0x40,0x73,0x6b,0x69,0x70,0x70,0x61,0x62,0x6c,0x65,0x46,0x3a,0x0a,0x40,0x77,0x61,0x69,0x74,0x54,0x3a,0x0a,0x40,0x6c,0x69,0x73,0x74,0x5b,0x07,0x6f,0x3a,0x15,0x52,0x50,0x47,0x3a,0x3a,0x4d,0x6f,0x76,0x65,0x43,0x6f,0x6d,0x6d,0x61,0x6e,0x64,0x07,0x3a,0x0a,0x40,0x63,0x6f,0x64,0x65,0x69,0x18,0x3a,0x10,0x40,0x70,0x61,0x72,0x61,0x6d,0x65,0x74,0x65,0x72,0x73,0x5b,0x00,0x6f,0x3b,0x0a,0x07,0x3b,0x0b,0x69,0x00,0x3b,0x0c,0x5b,0x00))
  241(bytes(0x04,0x08,0x6f,0x3a,0x0d,0x52,0x50,0x47,0x3a,0x3a,0x42,0x47,0x4d,0x08,0x3a,0x0a,0x40,0x6e,0x61,0x6d,0x65,0x49,0x22,0x0c,0x62,0x6f,0x73,0x73,0x30,0x2d,0x33,0x06,0x3a,0x06,0x45,0x54,0x3a,0x0c,0x40,0x76,0x6f,0x6c,0x75,0x6d,0x65,0x69,0x69,0x3a,0x0b,0x40,0x70,0x69,0x74,0x63,0x68,0x69,0x69))
  PictureDisplay(5,"80_tamamo_st61b",0,0,0,0,100,100,0,0)
  PictureMove(5,null,0,0,0,0,100,100,255,0,60,true)
  If(0,4,0)
   ShowMessageFace("alice_fc6",0,0,2,1)
   ShowMessage("【アリス】")
   ShowMessage("信じられん……なんという強さだ……")
   0()
  EndIf()
  If(0,5,0)
   ShowMessageFace("iriasu_fc4",2,0,2,2)
   ShowMessage("【イリアス】")
   ShowMessage("やはり……この体では、勝ち目など……")
   0()
  EndIf()
  ShowMessageFace("tamamo_fc3",0,0,2,3)
  ShowMessage("【玉藻】")
  ShowMessage("くくく……ウチに抗おうなど、愚かな事。")
  ShowMessage("六祖の前では、現世の者など塵芥の如しよ。")
  PictureClear(5)
  Wait(60)
  242(1)
  ShowMessageFace("tamamo_fc1",0,0,2,4)
  ShowMessage("【たまも】")
  ShowMessage("なんぞ、盛り上がっておるようじゃのう……")
  241(bytes(0x04,0x08,0x6f,0x3a,0x0d,0x52,0x50,0x47,0x3a,0x3a,0x42,0x47,0x4d,0x08,0x3a,0x0a,0x40,0x6e,0x61,0x6d,0x65,0x49,0x22,0x0b,0x74,0x61,0x6d,0x61,0x6d,0x6f,0x06,0x3a,0x06,0x45,0x54,0x3a,0x0c,0x40,0x76,0x6f,0x6c,0x75,0x6d,0x65,0x69,0x69,0x3a,0x0b,0x40,0x70,0x69,0x74,0x63,0x68,0x69,0x69))
  ChangeSwitch(32,32,0)
  205(-1,bytes(0x04,0x08,0x6f,0x3a,0x13,0x52,0x50,0x47,0x3a,0x3a,0x4d,0x6f,0x76,0x65,0x52,0x6f,0x75,0x74,0x65,0x09,0x3a,0x0c,0x40,0x72,0x65,0x70,0x65,0x61,0x74,0x46,0x3a,0x0f,0x40,0x73,0x6b,0x69,0x70,0x70,0x61,0x62,0x6c,0x65,0x46,0x3a,0x0a,0x40,0x77,0x61,0x69,0x74,0x54,0x3a,0x0a,0x40,0x6c,0x69,0x73,0x74,0x5b,0x07,0x6f,0x3a,0x15,0x52,0x50,0x47,0x3a,0x3a,0x4d,0x6f,0x76,0x65,0x43,0x6f,0x6d,0x6d,0x61,0x6e,0x64,0x07,0x3a,0x0a,0x40,0x63,0x6f,0x64,0x65,0x69,0x15,0x3a,0x10,0x40,0x70,0x61,0x72,0x61,0x6d,0x65,0x74,0x65,0x72,0x73,0x5b,0x00,0x6f,0x3b,0x0a,0x07,0x3b,0x0b,0x69,0x00,0x3b,0x0c,0x5b,0x00))
  205(9,bytes(0x04,0x08,0x6f,0x3a,0x13,0x52,0x50,0x47,0x3a,0x3a,0x4d,0x6f,0x76,0x65,0x52,0x6f,0x75,0x74,0x65,0x09,0x3a,0x0c,0x40,0x72,0x65,0x70,0x65,0x61,0x74,0x46,0x3a,0x0f,0x40,0x73,0x6b,0x69,0x70,0x70,0x61,0x62,0x6c,0x65,0x46,0x3a,0x0a,0x40,0x77,0x61,0x69,0x74,0x54,0x3a,0x0a,0x40,0x6c,0x69,0x73,0x74,0x5b,0x0a,0x6f,0x3a,0x15,0x52,0x50,0x47,0x3a,0x3a,0x4d,0x6f,0x76,0x65,0x43,0x6f,0x6d,0x6d,0x61,0x6e,0x64,0x07,0x3a,0x0a,0x40,0x63,0x6f,0x64,0x65,0x69,0x09,0x3a,0x10,0x40,0x70,0x61,0x72,0x61,0x6d,0x65,0x74,0x65,0x72,0x73,0x5b,0x00,0x6f,0x3b,0x0a,0x07,0x3b,0x0b,0x69,0x09,0x3b,0x0c,0x5b,0x00,0x6f,0x3b,0x0a,0x07,0x3b,0x0b,0x69,0x09,0x3b,0x0c,0x5b,0x00,0x6f,0x3b,0x0a,0x07,0x3b,0x0b,0x69,0x09,0x3b,0x0c,0x5b,0x00,0x6f,0x3b,0x0a,0x07,0x3b,0x0b,0x69,0x00,0x3b,0x0c,0x5b,0x00))
  If(0,4,0)
   ShowMessageFace("alice_fc5",6,0,2,5)
   ShowMessage("【アリス】")
   ShowMessage("もう一人、たまもが……！？")
   ShowMessage("貴様は、余の知る方のたまもで間違いないな……！？")
   0()
  EndIf()
  If(0,5,0)
   ShowMessageFace("iriasu_fc4",5,0,2,6)
   ShowMessage("【イリアス】")
   ShowMessage("もう一匹、たまもが……！？")
   ShowMessage("あなたは、この世界のたまもで間違いないですね……！？")
   0()
  EndIf()
  ShowMessageFace("ruka_fc1",0,0,2,7)
  ShowMessage("【ルカ】")
  ShowMessage("やっぱり、助けに来てくれたんだ！")
  PictureDisplay(5,"80_tamamo_st04",0,0,0,0,100,100,0,0)
  PictureMove(5,null,0,0,0,0,100,100,255,0,30,true)
  ShowMessageFace("tamamo_fc1",1,0,2,8)
  ShowMessage("【たまも】")
  ShowMessage("うむ、アルマエルマにあそこまでケツを蹴られてはな……")
  ShowMessage("流石に、いつまでも腐ってはおれん。")
  250(bytes(0x04,0x08,0x6f,0x3a,0x0c,0x52,0x50,0x47,0x3a,0x3a,0x53,0x45,0x08,0x3a,0x0a,0x40,0x6e,0x61,0x6d,0x65,0x49,0x22,0x0a,0x48,0x65,0x61,0x6c,0x37,0x06,0x3a,0x06,0x45,0x54,0x3a,0x0b,0x40,0x70,0x69,0x74,0x63,0x68,0x69,0x69,0x3a,0x0c,0x40,0x76,0x6f,0x6c,0x75,0x6d,0x65,0x69,0x55))
  224(bytes(0x04,0x08,0x75,0x3a,0x0a,0x43,0x6f,0x6c,0x6f,0x72,0x25,0x00,0x00,0x00,0x00,0x00,0xe0,0x6f,0x40,0x00,0x00,0x00,0x00,0x00,0xe0,0x6f,0x40,0x00,0x00,0x00,0x00,0x00,0xe0,0x6f,0x40,0x00,0x00,0x00,0x00,0x00,0xe0,0x6f,0x40),30,true)
  314(0,0)
  ShowMessageFace("",0,0,2,9)
  ShowMessage("たまもはラストエリクサーを使った！")
  ShowMessage("The party's HP and MP have been fully restored!")
  ShowMessageFace("tamamo_fc1",1,0,2,10)
  ShowMessage("【たまも】")
  ShowMessage("あと来る途中で、改造人間とヤクザが戦っているのを見かけたぞ……")
  ShowMessage("改造人間の方を叩きのめしておいたが、間違っておらんな？")
  If(0,6,0)
   ShowMessageFace("sonia_fc3",6,0,2,11)
   ShowMessage("【ソニア】")
   ShowMessage("ラザロおじさん達も助けてくれたんだ……")
   ShowMessage("ありがとう、たまも様！")
   0()
  Else()
   ShowMessageFace("ruka_fc1",0,0,2,12)
   ShowMessage("【ルカ】")
   ShowMessage("ラザロおじさん達は無事なんだ……良かった！")
   0()
  EndIf()
  PictureClear(5)
  Wait(60)
  241(bytes(0x04,0x08,0x6f,0x3a,0x0d,0x52,0x50,0x47,0x3a,0x3a,0x42,0x47,0x4d,0x08,0x3a,0x0a,0x40,0x6e,0x61,0x6d,0x65,0x49,0x22,0x0a,0x6b,0x69,0x6b,0x69,0x32,0x06,0x3a,0x06,0x45,0x54,0x3a,0x0c,0x40,0x76,0x6f,0x6c,0x75,0x6d,0x65,0x69,0x69,0x3a,0x0b,0x40,0x70,0x69,0x74,0x63,0x68,0x69,0x69))
  205(-1,bytes(0x04,0x08,0x6f,0x3a,0x13,0x52,0x50,0x47,0x3a,0x3a,0x4d,0x6f,0x76,0x65,0x52,0x6f,0x75,0x74,0x65,0x09,0x3a,0x0c,0x40,0x72,0x65,0x70,0x65,0x61,0x74,0x46,0x3a,0x0f,0x40,0x73,0x6b,0x69,0x70,0x70,0x61,0x62,0x6c,0x65,0x46,0x3a,0x0a,0x40,0x77,0x61,0x69,0x74,0x54,0x3a,0x0a,0x40,0x6c,0x69,0x73,0x74,0x5b,0x07,0x6f,0x3a,0x15,0x52,0x50,0x47,0x3a,0x3a,0x4d,0x6f,0x76,0x65,0x43,0x6f,0x6d,0x6d,0x61,0x6e,0x64,0x07,0x3a,0x0a,0x40,0x63,0x6f,0x64,0x65,0x69,0x18,0x3a,0x10,0x40,0x70,0x61,0x72,0x61,0x6d,0x65,0x74,0x65,0x72,0x73,0x5b,0x00,0x6f,0x3b,0x0a,0x07,0x3b,0x0b,0x69,0x00,0x3b,0x0c,0x5b,0x00))
  250(bytes(0x04,0x08,0x6f,0x3a,0x0c,0x52,0x50,0x47,0x3a,0x3a,0x53,0x45,0x08,0x3a,0x0a,0x40,0x6e,0x61,0x6d,0x65,0x49,0x22,0x10,0x6d,0x6f,0x6e,0x5f,0x74,0x61,0x6d,0x61,0x6d,0x6f,0x32,0x06,0x3a,0x06,0x45,0x54,0x3a,0x0b,0x40,0x70,0x69,0x74,0x63,0x68,0x69,0x69,0x3a,0x0c,0x40,0x76,0x6f,0x6c,0x75,0x6d,0x65,0x69,0x55))
  205(9,bytes(0x04,0x08,0x6f,0x3a,0x13,0x52,0x50,0x47,0x3a,0x3a,0x4d,0x6f,0x76,0x65,0x52,0x6f,0x75,0x74,0x65,0x09,0x3a,0x0c,0x40,0x72,0x65,0x70,0x65,0x61,0x74,0x46,0x3a,0x0f,0x40,0x73,0x6b,0x69,0x70,0x70,0x61,0x62,0x6c,0x65,0x46,0x3a,0x0a,0x40,0x77,0x61,0x69,0x74,0x46,0x3a,0x0a,0x40,0x6c,0x69,0x73,0x74,0x5b,0x07,0x6f,0x3a,0x15,0x52,0x50,0x47,0x3a,0x3a,0x4d,0x6f,0x76,0x65,0x43,0x6f,0x6d,0x6d,0x61,0x6e,0x64,0x07,0x3a,0x0a,0x40,0x63,0x6f,0x64,0x65,0x69,0x13,0x3a,0x10,0x40,0x70,0x61,0x72,0x61,0x6d,0x65,0x74,0x65,0x72,0x73,0x5b,0x07,0x69,0x00,0x69,0xf6,0x6f,0x3b,0x0a,0x07,0x3b,0x0b,0x69,0x00,0x3b,0x0c,0x5b,0x00))
  Wait(60)
  PictureDisplay(5,"80_tamamo_st01",0,0,0,0,100,100,0,0)
  PictureMove(5,null,0,0,0,0,100,100,255,0,30,true)
  ShowMessageFace("tamamo_fc1",0,0,2,13)
  ShowMessage("【たまも】")
  ShowMessage("さて……この者の相手は、お主達には荷が重すぎる。")
  ShowMessage("こやつはウチに任せてもらおうか。")
  PictureDisplay(6,"80_tamamo_st01",0,0,-200,0,100,100,255,0)
  PictureDisplay(5,"80_tamamo_st61b",0,0,200,0,100,100,255,0)
  ShowMessageFace("tamamo_fc3",0,0,2,14)
  ShowMessage("【玉藻】")
  ShowMessage("ほほう、この世界のウチか……")
  ShowMessage("お主はすでに、封印中の身と聞いたが？")
  PictureClear(6)
  PictureDisplay(5,"80_tamamo_st05",0,0,0,0,100,100,255,0)
  ShowMessageFace("tamamo_fc1",4,0,2,15)
  ShowMessage("【たまも】")
  ShowMessage("……吾身に問わん、悠久の刻。")
  ShowMessage("真身縛りし怨型の軛、月の黄昏と識れ。")
  250(bytes(0x04,0x08,0x6f,0x3a,0x0c,0x52,0x50,0x47,0x3a,0x3a,0x53,0x45,0x08,0x3a,0x0a,0x40,0x6e,0x61,0x6d,0x65,0x49,0x22,0x0e,0x44,0x61,0x72,0x6b,0x6e,0x65,0x73,0x73,0x31,0x06,0x3a,0x06,0x45,0x54,0x3a,0x0b,0x40,0x70,0x69,0x74,0x63,0x68,0x69,0x69,0x3a,0x0c,0x40,0x76,0x6f,0x6c,0x75,0x6d,0x65,0x69,0x55))
  PictureDisplay(10,"sys_white",0,0,0,0,100,100,0,0)
  PictureMove(10,null,0,0,0,0,100,100,255,0,30,true)
  241(bytes(0x04,0x08,0x6f,0x3a,0x0d,0x52,0x50,0x47,0x3a,0x3a,0x42,0x47,0x4d,0x08,0x3a,0x0a,0x40,0x6e,0x61,0x6d,0x65,0x49,0x22,0x12,0x73,0x63,0x65,0x6e,0x65,0x5f,0x62,0x61,0x74,0x74,0x6c,0x65,0x31,0x06,0x3a,0x06,0x45,0x54,0x3a,0x0c,0x40,0x76,0x6f,0x6c,0x75,0x6d,0x65,0x69,0x69,0x3a,0x0b,0x40,0x70,0x69,0x74,0x63,0x68,0x69,0x69))
  PictureDisplay(5,"80_tamamo_st51",0,0,0,0,100,100,255,0)
  PictureMove(10,null,0,0,0,0,100,100,0,0,30,true)
  ShowMessageFace("tamamo_fc2",0,0,2,16)
  ShowMessage("【たまも】")
  ShowMessage("――我が真身よ、在れ。")
  PictureDisplay(6,"80_tamamo_st52",0,0,-200,0,100,100,255,0)
  PictureDisplay(5,"80_tamamo_st64b",0,0,200,0,100,100,255,0)
  ShowMessageFace("tamamo_fc2",1,0,2,17)
  ShowMessage("【玉藻】")
  ShowMessage("これで不満はなかろう、もう一人のウチよ……")
  ShowMessage("我らの力、まったくの互角ぞ。")
  If(0,4,0)
   ShowMessageFace("alice_fc5",6,0,2,18)
   ShowMessage("【アリス】")
   ShowMessage("それが、貴様の真の姿だというのか……！？")
   0()
  EndIf()
  If(0,5,0)
   ShowMessageFace("iriasu_fc4",2,0,2,19)
   ShowMessage("【イリアス】")
   ShowMessage("本来の姿に戻りましたか。")
   ShowMessage("しかしその力、長くはもたないはず――")
   0()
  EndIf()
  ShowMessageFace("tamamo_fc3",0,0,2,20)
  ShowMessage("【玉藻】")
  ShowMessage("リリス……あの者の相手は、お主では務まらん。")
  ShowMessage("お主は勇者達をもてなしてやるが良い。")
  PictureClear(6)
  PictureDisplay(5,"80_lilith2_st01b",0,0,0,0,100,100,255,0)
  ShowMessageFace("lilith2_fc1",0,0,2,21)
  ShowMessage("【リリス】")
  ShowMessage("私達の主君は、魅凪様。")
  ShowMessage("いかに玉藻様といえど、頭ごなしに命じられるなど筋違い……")
  ShowMessageFace("lilith2_fc1",1,0,2,22)
  ShowMessage("【リリス】")
  ShowMessage("……ですが、この場はご提案を受けましょう。")
  ShowMessage("残る勇者達は、この私が相手をします……！")
  If(0,4,0)
   ShowMessageFace("alice_fc6",1,0,2,23)
   ShowMessage("【アリス】")
   ShowMessage("よし、玉藻はたまもに任せよ！")
   ShowMessage("我らは、リリスを迎え撃つぞ！")
   0()
  EndIf()
  If(0,5,0)
   ShowMessageFace("iriasu_fc4",7,0,2,24)
   ShowMessage("【イリアス】")
   ShowMessage("玉藻同士が潰し合っている隙に、リリスを討ちます！")
   ShowMessage("行きますよ！")
   0()
  EndIf()
  ShowMessageFace("ruka_fc1",0,0,2,25)
  ShowMessage("【ルカ】")
  ShowMessage("リリス……これ以上、お前達の好きにはさせない！")
  ShowMessage("ここで決着をつけるぞ！")
  PictureClear(5)
  SetBattleBGM(bytes(0x04,0x08,0x6f,0x3a,0x0d,0x52,0x50,0x47,0x3a,0x3a,0x42,0x47,0x4d,0x08,0x3a,0x0a,0x40,0x6e,0x61,0x6d,0x65,0x49,0x22,0x10,0x62,0x6f,0x73,0x73,0x5f,0x6c,0x69,0x6c,0x69,0x74,0x68,0x06,0x3a,0x06,0x45,0x54,0x3a,0x0c,0x40,0x76,0x6f,0x6c,0x75,0x6d,0x65,0x69,0x69,0x3a,0x0b,0x40,0x70,0x69,0x74,0x63,0x68,0x69,0x69))
  ChangeSwitch(22,22,0)
  Battle(0,719,false,false)
  ChangeSwitch(22,22,1)
  SetBattleBGM(bytes(0x04,0x08,0x6f,0x3a,0x0d,0x52,0x50,0x47,0x3a,0x3a,0x42,0x47,0x4d,0x08,0x3a,0x0a,0x40,0x6e,0x61,0x6d,0x65,0x49,0x22,0x0b,0x62,0x61,0x74,0x74,0x6c,0x65,0x06,0x3a,0x06,0x45,0x54,0x3a,0x0c,0x40,0x76,0x6f,0x6c,0x75,0x6d,0x65,0x69,0x69,0x3a,0x0b,0x40,0x70,0x69,0x74,0x63,0x68,0x69,0x69))
  241(bytes(0x04,0x08,0x6f,0x3a,0x0d,0x52,0x50,0x47,0x3a,0x3a,0x42,0x47,0x4d,0x08,0x3a,0x0a,0x40,0x6e,0x61,0x6d,0x65,0x49,0x22,0x0c,0x62,0x6f,0x73,0x73,0x30,0x2d,0x32,0x06,0x3a,0x06,0x45,0x54,0x3a,0x0c,0x40,0x76,0x6f,0x6c,0x75,0x6d,0x65,0x69,0x69,0x3a,0x0b,0x40,0x70,0x69,0x74,0x63,0x68,0x69,0x69))
  PictureDisplay(5,"80_lilith2_st03b",0,0,0,0,100,100,0,0)
  PictureMove(5,null,0,0,0,0,100,100,255,0,30,true)
  ShowMessageFace("lilith2_fc1",2,0,2,26)
  ShowMessage("【リリス】")
  ShowMessage("手を抜いたつもりはありません……")
  ShowMessage("にも関わらず、この私をここまで追い込むとは。")
  ShowMessageFace("ruka_fc1",0,0,2,27)
  ShowMessage("【ルカ】")
  ShowMessage("よし、勝てる……！")
  ShowMessage("このままいけば、倒せるぞ！")
  ShowMessageFace("lilith2_fc1",2,0,2,28)
  ShowMessage("【リリス】")
  ShowMessage("確かに、アスタロトの見込んだ通り……")
  ShowMessage("この者達は、我らの計画に含めた方がいいかもしれませんね。")
  PictureDisplay(6,"80_lilith2_st01b",0,0,-200,0,100,100,255,0)
  PictureDisplay(5,"80_tamamo_st64b",0,0,200,0,100,100,255,0)
  ShowMessageFace("tamamo_fc3",3,0,2,29)
  ShowMessage("【玉藻】")
  ShowMessage("その者どもを生かしたいなら、貴様は退いておけ。")
  ShowMessage("本気で仕合えば、どちらかが死ぬるぞ……")
  PictureClear(6)
  PictureDisplay(5,"80_lilith2_st01b",0,0,0,0,100,100,255,0)
  ShowMessageFace("lilith2_fc1",0,0,2,30)
  ShowMessage("【リリス】")
  ShowMessage("それでは、いったん失礼しましょう……")
  ShowMessage("次に会う時、あらためて我々の理を説きたいものですね。")
  If(0,4,0)
   ShowMessageFace("alice_fc6",1,0,2,31)
   ShowMessage("【アリス】")
   ShowMessage("何が理だ、耳など貸すか！")
   0()
  EndIf()
  If(0,5,0)
   ShowMessageFace("iriasu_fc4",7,0,2,32)
   ShowMessage("【イリアス】")
   ShowMessage("私達が、悪魔の囁きに耳を貸すとでも！？")
   0()
  EndIf()
  ShowMessageFace("lilith2_fc1",0,0,2,33)
  ShowMessage("【リリス】")
  ShowMessage("もちろん、耳を貸さざるを得ないはずです。")
  ShowMessage("この世界を守りたいならば、他に道はないのですから……")
  ShowMessageFace("lilith2_fc1",0,0,2,34)
  ShowMessage("【リリス】")
  ShowMessage("……では、またお会いしましょう。")
  PictureClear(5)
  Wait(60)
  250(bytes(0x04,0x08,0x6f,0x3a,0x0c,0x52,0x50,0x47,0x3a,0x3a,0x53,0x45,0x08,0x3a,0x0a,0x40,0x6e,0x61,0x6d,0x65,0x49,0x22,0x0e,0x6d,0x6f,0x6e,0x5f,0x77,0x69,0x6e,0x64,0x31,0x06,0x3a,0x06,0x45,0x54,0x3a,0x0b,0x40,0x70,0x69,0x74,0x63,0x68,0x69,0x69,0x3a,0x0c,0x40,0x76,0x6f,0x6c,0x75,0x6d,0x65,0x69,0x69))
  205(6,bytes(0x04,0x08,0x6f,0x3a,0x13,0x52,0x50,0x47,0x3a,0x3a,0x4d,0x6f,0x76,0x65,0x52,0x6f,0x75,0x74,0x65,0x09,0x3a,0x0c,0x40,0x72,0x65,0x70,0x65,0x61,0x74,0x46,0x3a,0x0f,0x40,0x73,0x6b,0x69,0x70,0x70,0x61,0x62,0x6c,0x65,0x46,0x3a,0x0a,0x40,0x77,0x61,0x69,0x74,0x54,0x3a,0x0a,0x40,0x6c,0x69,0x73,0x74,0x5b,0x07,0x6f,0x3a,0x15,0x52,0x50,0x47,0x3a,0x3a,0x4d,0x6f,0x76,0x65,0x43,0x6f,0x6d,0x6d,0x61,0x6e,0x64,0x07,0x3a,0x0a,0x40,0x63,0x6f,0x64,0x65,0x69,0x2c,0x3a,0x10,0x40,0x70,0x61,0x72,0x61,0x6d,0x65,0x74,0x65,0x72,0x73,0x5b,0x00,0x6f,0x3b,0x0a,0x07,0x3b,0x0b,0x69,0x00,0x3b,0x0c,0x5b,0x00))
  Wait(60)
  241(bytes(0x04,0x08,0x6f,0x3a,0x0d,0x52,0x50,0x47,0x3a,0x3a,0x42,0x47,0x4d,0x08,0x3a,0x0a,0x40,0x6e,0x61,0x6d,0x65,0x49,0x22,0x12,0x73,0x63,0x65,0x6e,0x65,0x5f,0x62,0x61,0x74,0x74,0x6c,0x65,0x31,0x06,0x3a,0x06,0x45,0x54,0x3a,0x0c,0x40,0x76,0x6f,0x6c,0x75,0x6d,0x65,0x69,0x69,0x3a,0x0b,0x40,0x70,0x69,0x74,0x63,0x68,0x69,0x69))
  PictureDisplay(6,"80_tamamo_st51",0,0,-200,0,100,100,0,0)
  PictureDisplay(5,"80_tamamo_st64b",0,0,200,0,100,100,0,0)
  PictureMove(6,null,0,0,-200,0,100,100,255,0,30,false)
  PictureMove(5,null,0,0,200,0,100,100,255,0,30,true)
  ShowMessageFace("tamamo_fc2",0,0,2,35)
  ShowMessage("【玉藻】")
  ShowMessage("さて、もう一人のウチよ……")
  ShowMessage("残るは、貴様のみとなってしまったな。")
  250(bytes(0x04,0x08,0x6f,0x3a,0x0c,0x52,0x50,0x47,0x3a,0x3a,0x53,0x45,0x08,0x3a,0x0a,0x40,0x6e,0x61,0x6d,0x65,0x49,0x22,0x0f,0x6d,0x6f,0x6e,0x5f,0x65,0x61,0x72,0x74,0x68,0x31,0x06,0x3a,0x06,0x45,0x54,0x3a,0x0b,0x40,0x70,0x69,0x74,0x63,0x68,0x69,0x69,0x3a,0x0c,0x40,0x76,0x6f,0x6c,0x75,0x6d,0x65,0x69,0x55))
  ShowMessageFace("",0,0,2,36)
  ShowMessage("二人の玉藻は、妖気をぶつけ合っている！")
  ShowMessage("その力は拮抗しているようだ――")
  ShowMessageFace("tamamo_fc3",3,0,2,37)
  ShowMessage("【玉藻】")
  ShowMessage("勇者どもは生かす……が、貴様は生かさんぞ。")
  ShowMessage("邪神に仕える身ながら、その責を放棄したのだからな……")
  ShowMessageFace("tamamo_fc2",0,0,2,38)
  ShowMessage("【玉藻】")
  ShowMessage("ふん、責か……")
  ShowMessage("己の欲のままに国を貪りたいだけのお主が、責を問うとは笑わせる！")
  PictureDisplay(5,"80_tamamo_st61b",0,0,200,0,100,100,255,0)
  ShowMessageFace("tamamo_fc3",0,0,2,39)
  ShowMessage("【玉藻】")
  ShowMessage("その威勢、時に限りがあると見たぞ……")
  ShowMessage("おおむね、もう一分もたんのではないか？")
  ShowMessageFace("tamamo_fc2",2,0,2,40)
  ShowMessage("【玉藻】")
  ShowMessage("……………………")
  ShowMessageFace("tamamo_fc3",0,0,2,41)
  ShowMessage("【玉藻】")
  ShowMessage("図星か、答える余裕もあるまい！")
  ShowMessage("さあ滅べ、もう一人のウチよ！")
  250(bytes(0x04,0x08,0x6f,0x3a,0x0c,0x52,0x50,0x47,0x3a,0x3a,0x53,0x45,0x08,0x3a,0x0a,0x40,0x6e,0x61,0x6d,0x65,0x49,0x22,0x0f,0x6d,0x6f,0x6e,0x5f,0x65,0x61,0x72,0x74,0x68,0x31,0x06,0x3a,0x06,0x45,0x54,0x3a,0x0b,0x40,0x70,0x69,0x74,0x63,0x68,0x69,0x69,0x3a,0x0c,0x40,0x76,0x6f,0x6c,0x75,0x6d,0x65,0x69,0x55))
  ShowMessageFace("",0,0,2,42)
  ShowMessage("この世界の玉藻が、押され始めた！")
  ShowMessage("徐々に力が落ち、じわじわ圧倒されていく――")
  PictureClear(5)
  PictureClear(6)
  Wait(60)
  ShowMessageFace("nero_fc1",0,0,2,43)
  ShowMessage("【ネロ】")
  ShowMessage("……ところが、そうは行かん！")
  241(bytes(0x04,0x08,0x6f,0x3a,0x0d,0x52,0x50,0x47,0x3a,0x3a,0x42,0x47,0x4d,0x08,0x3a,0x0a,0x40,0x6e,0x61,0x6d,0x65,0x49,0x22,0x0f,0x62,0x6f,0x73,0x73,0x5f,0x6d,0x61,0x6f,0x75,0x31,0x06,0x3a,0x06,0x45,0x54,0x3a,0x0c,0x40,0x76,0x6f,0x6c,0x75,0x6d,0x65,0x69,0x69,0x3a,0x0b,0x40,0x70,0x69,0x74,0x63,0x68,0x69,0x69))
  212(10,542,false)
  Wait(30)
  212(11,542,false)
  ChangeSwitch(34,34,0)
  Wait(60)
  PictureDisplay(5,"80_nero_st01",0,0,-175,0,100,100,0,0)
  PictureDisplay(6,"80_neris_st03",0,0,175,0,100,100,0,0)
  PictureMove(5,null,0,0,-175,0,100,100,255,0,30,false)
  PictureMove(6,null,0,0,175,0,100,100,255,0,30,true)
  ShowMessageFace("tamamo_fc3",2,0,2,44)
  ShowMessage("【玉藻】")
  ShowMessage("貴様等は……！？")
  ShowMessageFace("nero_fc1",0,0,2,45)
  ShowMessage("【ネロ】")
  ShowMessage("ネリス、全力で行くぞ！")
  ShowMessageFace("neris_fc1",2,0,2,46)
  ShowMessage("【ネリス】")
  ShowMessage("全力って……")
  ShowMessage("この城、吹っ飛んじゃうけどいいの……！？")
  ChangeSwitch(35,35,0)
  250(bytes(0x04,0x08,0x6f,0x3a,0x0c,0x52,0x50,0x47,0x3a,0x3a,0x53,0x45,0x08,0x3a,0x0a,0x40,0x6e,0x61,0x6d,0x65,0x49,0x22,0x0e,0x44,0x61,0x72,0x6b,0x6e,0x65,0x73,0x73,0x31,0x06,0x3a,0x06,0x45,0x54,0x3a,0x0b,0x40,0x70,0x69,0x74,0x63,0x68,0x69,0x69,0x3a,0x0c,0x40,0x76,0x6f,0x6c,0x75,0x6d,0x65,0x69,0x55))
  PictureDisplay(5,"80_nero_st11",0,0,-175,0,100,100,255,0)
  ShowMessageFace("nero_fc2",0,0,2,47)
  ShowMessage("【ネロ】")
  ShowMessage("力を出し惜しみできる相手じゃない、最初から全力だ！")
  250(bytes(0x04,0x08,0x6f,0x3a,0x0c,0x52,0x50,0x47,0x3a,0x3a,0x53,0x45,0x08,0x3a,0x0a,0x40,0x6e,0x61,0x6d,0x65,0x49,0x22,0x0e,0x44,0x61,0x72,0x6b,0x6e,0x65,0x73,0x73,0x31,0x06,0x3a,0x06,0x45,0x54,0x3a,0x0b,0x40,0x70,0x69,0x74,0x63,0x68,0x69,0x69,0x3a,0x0c,0x40,0x76,0x6f,0x6c,0x75,0x6d,0x65,0x69,0x55))
  PictureDisplay(6,"80_neris_st11",0,0,175,0,100,100,255,0)
  ShowMessageFace("neris_fc2",0,0,2,48)
  ShowMessage("【ネリス】")
  ShowMessage("オッケー、本気で行くよ！")
  If(0,4,0)
   ShowMessageFace("alice_fc5",6,0,2,49)
   ShowMessage("【アリス】")
   ShowMessage("お前等……！？　その姿は……！？")
   0()
  EndIf()
  If(0,5,0)
   ShowMessageFace("iriasu_fc4",5,0,2,50)
   ShowMessage("【イリアス】")
   ShowMessage("あなた達……！？　その姿は……！？")
   0()
  EndIf()
  PictureDisplay(6,"80_tamamo_st51",0,0,-200,0,100,100,255,0)
  PictureDisplay(5,"80_nero_st11b",0,0,200,0,100,100,255,0)
  ShowMessageFace("tamamo_fc2",2,0,2,51)
  ShowMessage("【玉藻】")
  ShowMessage("いったい何者だ？")
  ShowMessage("なぜ、ウチに助勢する……？")
  ShowMessageFace("nero_fc2",0,0,2,52)
  ShowMessage("【ネロ】")
  ShowMessage("話は後です、師匠！")
  ShowMessage("私達と呼吸を合わせて下さい！")
  ShowMessageFace("tamamo_fc2",0,0,2,53)
  ShowMessage("【玉藻】")
  ShowMessage("弟子を持った覚えなどないが……")
  ShowMessage("分かった、行くぞ！")
  PictureClear(5)
  PictureClear(6)
  212(8,610,false)
  ShowMessageFace("",0,0,2,54)
  ShowMessage("ネロ、ネリス、玉藻の魔力が合わさった！")
  ShowMessage("異世界の玉藻を圧倒していく――")
  ShowMessageFace("tamamo_fc3",2,0,2,55)
  ShowMessage("【玉藻】")
  ShowMessage("この力は……ぬぅぅっ……！！")
  212(8,583,true)
  250(bytes(0x04,0x08,0x6f,0x3a,0x0c,0x52,0x50,0x47,0x3a,0x3a,0x53,0x45,0x08,0x3a,0x0a,0x40,0x6e,0x61,0x6d,0x65,0x49,0x22,0x0f,0x6d,0x6f,0x6e,0x5f,0x65,0x61,0x72,0x74,0x68,0x31,0x06,0x3a,0x06,0x45,0x54,0x3a,0x0b,0x40,0x70,0x69,0x74,0x63,0x68,0x69,0x69,0x3a,0x0c,0x40,0x76,0x6f,0x6c,0x75,0x6d,0x65,0x69,0x69))
  If(0,4,0)
   ShowMessageFace("alice_fc6",0,0,2,56)
   ShowMessage("【アリス】")
   ShowMessage("なんという力の応酬……これでは城が持たん！")
   ShowMessage("ルカ、ここから撤退するぞ！")
   0()
  EndIf()
  If(0,5,0)
   ShowMessageFace("iriasu_fc4",7,0,2,57)
   ShowMessage("【イリアス】")
   ShowMessage("この力の応酬は、聖魔大戦の規模……！")
   ShowMessage("これでは城はもちません、ただちに逃げるのです！")
   0()
  EndIf()
  ShowMessageFace("ruka_fc1",0,0,2,58)
  ShowMessage("【ルカ】")
  ShowMessage("逃げるぞ！　急いで！")
  205(-1,bytes(0x04,0x08,0x6f,0x3a,0x13,0x52,0x50,0x47,0x3a,0x3a,0x4d,0x6f,0x76,0x65,0x52,0x6f,0x75,0x74,0x65,0x09,0x3a,0x0c,0x40,0x72,0x65,0x70,0x65,0x61,0x74,0x46,0x3a,0x0f,0x40,0x73,0x6b,0x69,0x70,0x70,0x61,0x62,0x6c,0x65,0x46,0x3a,0x0a,0x40,0x77,0x61,0x69,0x74,0x54,0x3a,0x0a,0x40,0x6c,0x69,0x73,0x74,0x5b,0x07,0x6f,0x3a,0x15,0x52,0x50,0x47,0x3a,0x3a,0x4d,0x6f,0x76,0x65,0x43,0x6f,0x6d,0x6d,0x61,0x6e,0x64,0x07,0x3a,0x0a,0x40,0x63,0x6f,0x64,0x65,0x69,0x06,0x3a,0x10,0x40,0x70,0x61,0x72,0x61,0x6d,0x65,0x74,0x65,0x72,0x73,0x5b,0x00,0x6f,0x3b,0x0a,0x07,0x3b,0x0b,0x69,0x00,0x3b,0x0c,0x5b,0x00))
  212(8,569,true)
  221()
  250(bytes(0x04,0x08,0x6f,0x3a,0x0c,0x52,0x50,0x47,0x3a,0x3a,0x53,0x45,0x08,0x3a,0x0a,0x40,0x6e,0x61,0x6d,0x65,0x49,0x22,0x0f,0x6d,0x6f,0x6e,0x5f,0x65,0x61,0x72,0x74,0x68,0x31,0x06,0x3a,0x06,0x45,0x54,0x3a,0x0b,0x40,0x70,0x69,0x74,0x63,0x68,0x69,0x69,0x3a,0x0c,0x40,0x76,0x6f,0x6c,0x75,0x6d,0x65,0x69,0x69))
  If(0,6,0)
   ShowMessageFace("sonia_fc3",7,0,2,59)
   ShowMessage("【ソニア】")
   ShowMessage("し、城が……崩れ出して……！！")
   0()
  Else()
   ShowMessageFace("ruka_fc1",0,0,2,60)
   ShowMessage("【ルカ】")
   ShowMessage("し、城が……崩れて！")
   0()
  EndIf()
  250(bytes(0x04,0x08,0x6f,0x3a,0x0c,0x52,0x50,0x47,0x3a,0x3a,0x53,0x45,0x08,0x3a,0x0a,0x40,0x6e,0x61,0x6d,0x65,0x49,0x22,0x0f,0x6d,0x6f,0x6e,0x5f,0x65,0x61,0x72,0x74,0x68,0x32,0x06,0x3a,0x06,0x45,0x54,0x3a,0x0b,0x40,0x70,0x69,0x74,0x63,0x68,0x69,0x69,0x3a,0x0c,0x40,0x76,0x6f,0x6c,0x75,0x6d,0x65,0x69,0x69))
  If(0,4,0)
   ShowMessageFace("alice_fc6",1,0,2,61)
   ShowMessage("【アリス】")
   ShowMessage("立ち止まるな！　走れー！！")
   0()
  EndIf()
  If(0,5,0)
   ShowMessageFace("iriasu_fc4",7,0,2,62)
   ShowMessage("【イリアス】")
   ShowMessage("立ち止まってはなりません！　走るのです！！")
   0()
  EndIf()
  250(bytes(0x04,0x08,0x6f,0x3a,0x0c,0x52,0x50,0x47,0x3a,0x3a,0x53,0x45,0x08,0x3a,0x0a,0x40,0x6e,0x61,0x6d,0x65,0x49,0x22,0x0f,0x6d,0x6f,0x6e,0x5f,0x65,0x61,0x72,0x74,0x68,0x34,0x06,0x3a,0x06,0x45,0x54,0x3a,0x0b,0x40,0x70,0x69,0x74,0x63,0x68,0x69,0x69,0x3a,0x0c,0x40,0x76,0x6f,0x6c,0x75,0x6d,0x65,0x69,0x69))
  ShowMessageFace("",0,0,2,63)
  ShowMessage("ルカ達は、グランゴルド城から脱出した――")
  Wait(180)
  TeleportPlayer(0,37,47,5,2,2)
  241(bytes(0x04,0x08,0x6f,0x3a,0x0d,0x52,0x50,0x47,0x3a,0x3a,0x42,0x47,0x4d,0x08,0x3a,0x0a,0x40,0x6e,0x61,0x6d,0x65,0x49,0x22,0x0a,0x6b,0x69,0x6b,0x69,0x32,0x06,0x3a,0x06,0x45,0x54,0x3a,0x0c,0x40,0x76,0x6f,0x6c,0x75,0x6d,0x65,0x69,0x69,0x3a,0x0b,0x40,0x70,0x69,0x74,0x63,0x68,0x69,0x69))
  ChangeVariable(1001,1001,0,0,26)
  ChangeVariable(1063,1063,0,0,13)
  ChangeVariable(1002,1002,0,0,31)
  ChangeSwitch(31,31,1)
  ChangeSwitch(32,32,1)
  ChangeSwitch(33,33,1)
  ChangeSwitch(34,34,1)
  ChangeSwitch(35,35,1)
  ChangeSwitch(2270,2270,0)
  222()
  RunCommonEvent(358)
  EndEventProcessing()
  0()
 PAGE   2
  // condition: variable 1063 >= 13
  0()



EVENT   25
 PAGE   1
  241(bytes(0x04,0x08,0x6f,0x3a,0x0d,0x52,0x50,0x47,0x3a,0x3a,0x42,0x47,0x4d,0x08,0x3a,0x0a,0x40,0x6e,0x61,0x6d,0x65,0x49,0x22,0x0a,0x6b,0x69,0x6b,0x69,0x32,0x06,0x3a,0x06,0x45,0x54,0x3a,0x0c,0x40,0x76,0x6f,0x6c,0x75,0x6d,0x65,0x69,0x69,0x3a,0x0b,0x40,0x70,0x69,0x74,0x63,0x68,0x69,0x69))
  205(-1,bytes(0x04,0x08,0x6f,0x3a,0x13,0x52,0x50,0x47,0x3a,0x3a,0x4d,0x6f,0x76,0x65,0x52,0x6f,0x75,0x74,0x65,0x09,0x3a,0x0c,0x40,0x72,0x65,0x70,0x65,0x61,0x74,0x46,0x3a,0x0f,0x40,0x73,0x6b,0x69,0x70,0x70,0x61,0x62,0x6c,0x65,0x46,0x3a,0x0a,0x40,0x77,0x61,0x69,0x74,0x54,0x3a,0x0a,0x40,0x6c,0x69,0x73,0x74,0x5b,0x07,0x6f,0x3a,0x15,0x52,0x50,0x47,0x3a,0x3a,0x4d,0x6f,0x76,0x65,0x43,0x6f,0x6d,0x6d,0x61,0x6e,0x64,0x07,0x3a,0x0a,0x40,0x63,0x6f,0x64,0x65,0x69,0x15,0x3a,0x10,0x40,0x70,0x61,0x72,0x61,0x6d,0x65,0x74,0x65,0x72,0x73,0x5b,0x00,0x6f,0x3b,0x0a,0x07,0x3b,0x0b,0x69,0x00,0x3b,0x0c,0x5b,0x00))
  If(0,4,0)
   ShowMessageFace("alice_fc6",0,0,2,1)
   ShowMessage("【アリス】")
   ShowMessage("まさか、あいつは……！")
   0()
  EndIf()
  If(0,5,0)
   ShowMessageFace("iriasu_fc4",7,0,2,2)
   ShowMessage("【イリアス】")
   ShowMessage("まさか、あの者は……！")
   0()
  EndIf()
  205(-1,bytes(0x04,0x08,0x6f,0x3a,0x13,0x52,0x50,0x47,0x3a,0x3a,0x4d,0x6f,0x76,0x65,0x52,0x6f,0x75,0x74,0x65,0x09,0x3a,0x0c,0x40,0x72,0x65,0x70,0x65,0x61,0x74,0x46,0x3a,0x0f,0x40,0x73,0x6b,0x69,0x70,0x70,0x61,0x62,0x6c,0x65,0x46,0x3a,0x0a,0x40,0x77,0x61,0x69,0x74,0x54,0x3a,0x0a,0x40,0x6c,0x69,0x73,0x74,0x5b,0x09,0x6f,0x3a,0x15,0x52,0x50,0x47,0x3a,0x3a,0x4d,0x6f,0x76,0x65,0x43,0x6f,0x6d,0x6d,0x61,0x6e,0x64,0x07,0x3a,0x0a,0x40,0x63,0x6f,0x64,0x65,0x69,0x06,0x3a,0x10,0x40,0x70,0x61,0x72,0x61,0x6d,0x65,0x74,0x65,0x72,0x73,0x5b,0x00,0x6f,0x3b,0x0a,0x07,0x3b,0x0b,0x69,0x06,0x3b,0x0c,0x5b,0x00,0x6f,0x3b,0x0a,0x07,0x3b,0x0b,0x69,0x06,0x3b,0x0c,0x5b,0x00,0x6f,0x3b,0x0a,0x07,0x3b,0x0b,0x69,0x00,0x3b,0x0c,0x5b,0x00))
  RunCommonEvent(338)
  0()
 PAGE   2
  // condition: switch 2192 is ON
  0()
