# -*- encoding: utf-8 -*-
=begin
= 仲間に関する設定

==更新履歴
Date     Version Author Comment
  :actor_id => 仲間になるアクターID
  :denominator => 仲間になる確率分母(1/N)
  :question => 質問セリフ,
  :yes => 承諾セリフ,
  :no => 拒否セリフ,

従来の設定では:denominatorに-1を設定すると
判定無視で仲間になる仕様でしたが使っていないようなので廃止にしました
=end

#==============================================================================
# ■ NWConst::Follower
#==============================================================================
module NWConst::Follower  
  SETTINGS = {
    3 => { # バニースライム娘
      :actor_id => 54, :denominator => 1,
      :question => ["[Bunny Slime]\nHop hooop! Hey, take me with you too!", "bunnyslime_fc1", 0],
      :yes => ["[Bunny Slime]\nOh... You're that guy I fought back on the mountain... Oh well, nice to meet you. ♪", "bunnyslime_fc1", 1],
      :no => ["[Bunny Slime]\nWahh, you're mean!", "bunnyslime_fc1", 3],
    },
    4 => { # ナメクジ娘
      :actor_id => 55, :denominator => 2,
      :question => ["[Slug Girl]\n...If it's all right with you, would you take me with you as well?", "name_fc1", 2],
      :yes => ["[Slug Girl]\nEven though mine are slimy, shall we shake hands? ...Nice to meet you.", "name_fc1", 3],
      :no => ["[Slug Girl]\nIt's because I'm slimy isn't it?", "name_fc1", 1],
    },
    5 => { # インプ
      :actor_id => 56, :denominator => 2,
      :question => ["[Imp]\nYou guys seem nice. ♪ Hey, make me your companion too. ♪", "inp_fc1", 0],
      :yes => ["[Imp]\nAhahaa, nice to meet youuu! ♪ Oh, and could you help me find my friends? We got separated. ♪", "inp_fc1", 0],
      :no => ["[Imp]\nMeanie...", "inp_fc1", 3],
    },
    6 => { # マンドラゴラ娘
      :actor_id => 59, :denominator => 3,
      :question => ["[Mandragora]\nHey, hey, could you make me your companion too? ...If you don't, I'll scream.", "mdg_fc1", 0],
      :yes => ["[Mandragora]\nI'll follow you anywhere, buried in the ground.", "mdg_fc1", 0],
      :no => ["[Mandragora]\nAhhhhhhhhhhhhhhh...", "mdg_fc1", 2],
    },
    7 => { # 犬娘
      :actor_id => 60, :denominator => 3,
      :question => ["[Dog Girl]\nTake me, woof, woof!", "dog_fc1", 0],
      :yes => ["[Dog Girl]\nI'll follow you anywhere!", "dog_fc1", 1],
      :no => ["[Dog Girl]\n*Whimper* *Whimper*", "dog_fc1", 2],
    },
    8 => { # ミミズ娘
      :actor_id => 61, :denominator => 3,
      :question => ["[Earthworm Girl]\nHey, will you take me along too?", "mimizu_fc1", 0],
      :yes => ["[Earthworm Girl]\nFufuu, I'll prove how strong earthworms are.", "mimizu_fc1", 1],
      :no => ["[Earthworm Girl]\nIf I dry out after this, it'll be your fault...", "mimizu_fc1", 2],
    },
    13 => { # ネズミ娘
      :actor_id => 70, :denominator => 3,
      :question => ["[Rat Girl]\nIf I stick with you, will I get to eat tasty food?", "nezumi_fc1", 1],
      :yes => ["[Rat Girl]\nYippee! I'll work really hard!", "nezumi_fc1", 1],
      :no => ["[Rat Girl]\nOkay... I am a rat, after all.", "nezumi_fc1", 0],
    },
    14 => { # 狼娘
      :actor_id => 71, :denominator => 2,
      :question => ["[Wolf Girl]\nRawr! Take me with you! My fangs and claws will be handy!", "okami_fc1", 0],
      :yes => ["[Wolf Girl]\nAwooo! I'll tear your enemies apart!", "okami_fc1", 3],
      :no => ["[Wolf Girl]\nGrrrrrr... You're stingy...", "okami_fc1", 2],
    },
    16 => { # ヒル娘
      :actor_id => 73, :denominator => 3,
      :question => ["[Leech Girl]\nI want to suck the fluids from lots of monsters. Hey, will you take me on your adventure too?", "hiru_fc1", 0],
      :yes => ["[Leech Girl]\nFufuu, nice to meet you.", "hiru_fc1", 1],
      :no => ["[Leech Girl]\n...I'm going to squeeze out the fluids of all the local men.", "hiru_fc1", 2],
    },
    17 => { # ウサギ娘
      :actor_id => 74, :denominator => 1,
      :question => ["[Rabbit Girl]\nYou're really strong. Hey, will you make big sis a companion too?", "usagi_fc1", 0],
      :yes => ["[Rabbit Girl]\nWell then, I'll stand by you starting today. Fufuu, nice to meet you.", "usagi_fc1", 3],
      :no => ["[Rabbit Girl]\nOh my, so your current companions are good enough, huh...", "usagi_fc1", 2],
    },
    18 => { # 羊娘
      :actor_id => 75, :denominator => 2,
      :question => ["[Sheep Girl]\nEyyy, will you take me?", "hituzi_fc1", 0],
      :yes => ["[Sheep Girl]\nUehihi, let's drink together! ♪", "hituzi_fc1", 3],
      :no => ["[Sheep Girl]\nThen I'll drink on my own!", "hituzi_fc1", 2],
    },
    19 => { # シュリー
      :actor_id => 76, :denominator => 4,
      :question => ["[Sully]\nI want adventure outside too! Hey, take me with youuu!", "syuree_fc1", 0],
      :yes => ["[Sully]\nYay! I get to see the outside world!", "syuree_fc1", 1],
      :no => ["[Sully]\nI'm tired of this plaaace... I want to go outsiiide...", "syuree_fc1", 3],
    },
    20 => { # ジェイド
      :actor_id => 77, :denominator => 4,
      :question => ["[Jaide]\nI would like to accompany you.", "jeid_fc1", 0],
      :yes => ["[Jaide]\nPermission to accompany received. I can proceed outside.", "jeid_fc1", 0],
      :no => ["[Jaide]\nPermission to accompany could not be obtained. The usual patrol will continue.", "jeid_fc1", 2],
    },
    21 => { # シェスタ
      :actor_id => 78, :denominator => 4,
      :question => ["[Shesta]\nMy memories... I can't remember... I want to search... for what I am...", "syesta_fc1", 0],
      :yes => ["[Shesta]\nTell me, what am I...?", "syesta_fc1", 1],
      :no => ["[Shesta]\nI am... I don't know...", "syesta_fc1", 2],
    },
    23 => { # オーク娘
      :actor_id => 80, :denominator => 2,
      :question => ["[Orc Girl]\nOink, will you give me delicious things to eat?", "orc_fc1", 0],
      :yes => ["[Orc Girl]\nOrc will be your companion! Room and board are assured! Yippee!", "orc_fc1", 1],
      :no => ["[Orc Girl]\nOink...", "orc_fc1", 2],
    },
    24 => { # ミツバチ娘
      :actor_id => 81, :denominator => 2,
      :question => ["[Bee Girl]\nWouldn't you like to taste my honey later on in your journey too? Take me, and I'll give you my honey.", "mitubati_fc1", 0],
      :yes => ["[Bee Girl]\nFufuu... Please enjoy plenty of my sweet nectar.", "mitubati_fc1", 1],
      :no => ["[Bee Girl]\nYou don't want my honey? Well that's disappointing...", "mitubati_fc1", 2],
    },
    25 => { # スズメ娘
      :actor_id => 82, :denominator => 2,
      :question => ["[Sparrow Girl]\nU-umm... Would you please make me your companion too?", "suzume_fc1", 0],
      :yes => ["[Sparrow Girl]\nR-really?　I'm so happy!", "suzume_fc1", 1],
      :no => ["[Sparrow Girl]\nTh-that's all right... Sparrows aren't very strong, are they?", "suzume_fc1", 2],
    },
    26 => { # ハーピー
      :actor_id => 83, :denominator => 2,
      :question => ["[Harpy]\nHey, hey, take me on your adventure too!", "hapy_a_fc1", 0],
      :yes => ["[Harpy]\nAha! If it's with you, I'll go anywhere!", "hapy_a_fc1", 1],
      :no => ["[Harpy]\nThat's okay... I can fly by myself...", "hapy_a_fc1", 2],
    },
    27 => { # ハーピーツインズ
      :actor_id => 84, :denominator => 3,
      :question => ["[Harpy Sisters]\nHey, Pii says she wants to travel with you. ...Of course, as her guardian, I'll come too.", "hapy_bc_fc1", 0],
      :yes => ["[Harpy Sisters]\nGood for you, Pii.", "hapy_bc_fc1", 1],
      :no => ["[Harpy Sisters]\n...It didn't work out, Pii.", "hapy_bc_fc1", 2],
    },
    29 => { # ハイスラッグ娘
      :actor_id => 85, :denominator => 3,
      :question => ["[High Slug]\nFufuu, will you be my escort?", "highslag_fc1", 0],
      :yes => ["[High Slug]\nFufufuu, you're a good boy... As a reward, I'll give you some sticky-sticky.", "highslag_fc1", 1],
      :no => ["[High Slug]\nWhat a rude boy...", "highslag_fc1", 2],
    },
    30 => { # ナメクジシスター
      :actor_id => 86, :denominator => 4,
      :question => ["[Slug Nun]\nI'm a mucus-covered sister, but may I join you? I want to spread the teachings of Ilias all over the world.", "name_s_fc1", 0],
      :yes => ["[Slug Nun]\nWell then, I will accompany you from now on. It's a pleasure to meet you, fufufuu...", "name_s_fc1", 1],
      :no => ["[Slug Nun]\nIs that so? That's unfortunate. Slimy sisters seem to be unpopular...", "name_s_fc1", 2],
    },
    32 => { # ジャックオーランタン
      :actor_id => 88, :denominator => 2,
      :question => ["[Jack O Lantern]\nI also want to be an adventurer. Umm, will you make me your companion?", "jack_fc1", 0],
      :yes => ["[Jack O Lantern]\nNice to meet you. I'll follow you anywhere.", "jack_fc1", 1],
      :no => ["[Jack O Lantern]\nI-I'm sorry...", "jack_fc1", 2],
    },
    33 => { # ローパー娘
      :actor_id => 89, :denominator => 4,
      :question => ["[Roper Girl]\nI'm hungry... Will you take me somewhere that has food?", "ropa_fc1", 0],
      :yes => ["[Roper Girl]\nLet me eat a lot. Fufufuu...", "ropa_fc1", 1],
      :no => ["[Roper Girl]\nI'm hungry...", "ropa_fc1", 2],
    },
    34 => { # メーダ娘
      :actor_id => 90, :denominator => 4,
      :question => ["[Meda]\n*Rustle Rustle* *Creep Creep Creep*", "meda_fc1", 0],
      :yes => ["[Meda]\n*Creep Creep* ...Nice to meet you.", "meda_fc1", 0],
      :no => ["[Meda]\n*Slink Slink Slink*", "meda_fc1", 0],
    },
    35 => { # キャンドル娘
      :actor_id => 91, :denominator => 4,
      :question => ["[Candle Girl]\nI want to see the world while I yet live... My wish... Won't you grant it...?", "candle_fc1", 0],
      :yes => ["[Candle Girl]\nFufuu, thank you... That said, I'm actually undead, so I won't die.", "candle_fc1", 1],
      :no => ["[Candle Girl]\nYou won't listen to my last request...", "candle_fc1", 2],
    },
    36 => { # イーター
      :actor_id => 92, :denominator => 4,
      :question => ["[Eater]\nHey, take me to the outside world!", "eater_fc1", 0],
      :yes => ["[Eater]\nYaaay! I get to eat a lot!", "eater_fc1", 3],
      :no => ["[Eater]\nI don't want to stay here, I want to go outside...", "eater_fc1", 2],
    },
    37 => { # ライオット
      :actor_id => 93, :denominator => 4,
      :question => ["[Riot]\nTake me with you. I've had enough of rioting in this place...", "liot_fc1", 0],
      :yes => ["[Riot]\nWhat kind of strong people live in the outside world?", "liot_fc1", 4],
      :no => ["[Riot]\nGeez, I'm bored of everything in this world...", "liot_fc1", 2],
    },
    38 => { # ルクスル
      :actor_id => 94, :denominator => 4,
      :question => ["[Luxuru]\nAhaa, please take me along too. I'll suck everything from your enemies...", "luksl_fc1", 0],
      :yes => ["[Luxuru]\nAhahaa, it's a pleasure! Ahahahahahaa!", "luksl_fc1", 1],
      :no => ["[Luxuru]\nAhahahahaa!　Interesting!", "luksl_fc1", 1],
    },
    39 => { # ダークエルフ
      :actor_id => 95, :denominator => 3,
      :question => ["[Dark Elf Swordsman]\nI won't get bored if I'm with you. Don't you think my sword would be useful?", "delh_a_fc1", 1],
      :yes => ["[Dark Elf Swordsman]\nFufuu, it's decided. You can rely on my blade from now on.", "delh_a_fc1", 1],
      :no => ["[Dark Elf Swordsman]\nYou don't need my sword?!", "delh_a_fc1", 2],
    },
    40 => { # ダークエルフ
      :actor_id => 96, :denominator => 4,
      :question => ["[Dark Elf Mage]\nMy tentacles seek more nourishment. If I follow you, I'll be able to suck out plenty.", "delh_b_fc1", 0],
      :yes => ["[Dark Elf Mage]\nFufuu, let's get along from now on. I'll squeeze all of your enemies.", "delh_b_fc1", 1],
      :no => ["[Dark Elf Mage]\nI see. That's unfortunate...", "delh_b_fc1", 2],
    },
    41 => { # フェアリー
      :actor_id => 97, :denominator => 2,
      :question => ["[Fairy]\nHey, hey, I want to go on an adventure too. ♪", "fairy_fc1", 0],
      :yes => ["[Fairy]\nYaaay! Nice to meet you. ♪", "fairy_fc1", 0],
      :no => ["[Fairy]\nMeanie...", "fairy_fc1", 2],
    },
    42 => { # ミニカニ娘
      :actor_id => 98, :denominator => 4,
      :question => ["[Mini Crab Girl]\nYaay! I want to adventure together too! ♪", "minikani_fc1", 0],
      :yes => ["[Mini Crab Girl]\nAhahaa, nice to meet youuu!", "minikani_fc1", 0],
      :no => ["[Mini Crab Girl]\nUh! Waaaah!", "minikani_fc1", 2],
    },
    43 => { # ナマズ娘
      :actor_id => 99, :denominator => 4,
      :question => ["[Catfish Girl]\nI don't mind traveling every now and then. Would you take me along too, lad?", "namazu_fc1", 0],
      :yes => ["[Catfish Girl]\nFufuu, despite my age, I'm getting excited.", "namazu_fc1", 1],
      :no => ["[Catfish Girl]\nIf there's ever a large earthquake, think of it as my anger.", "namazu_fc1", 2],
    },
    44 => { # ラフレシア娘
      :actor_id => 100, :denominator => 4,
      :question => ["[Rafflesia Girl]\nI want to go somewhere other than the jungle every now and then. Hey, will you take me with you?", "rahure_fc1", 0],
      :yes => ["[Rafflesia Girl]\nIt's my first time leaving the jungle. I'm getting excited, fufufuu...", "rahure_fc1", 1],
      :no => ["[Rafflesia Girl]\nOf course... Is it the smell?", "rahure_fc1", 2],
    },
    45 => { # セントール
      :actor_id => 101, :denominator => 2,
      :question => ["[Centaur]\nHey, take me on a trip too. I have confidence in my running.", "cent2_fc1", 0],
      :yes => ["[Centaur]\nFufuu, I'm your companion from now on. Get careless, and I'll take the lead.", "cent2_fc1", 1],
      :no => ["[Centaur]\nWhy the heck not?!", "cent2_fc1", 2],
    },
    46 => { # 銀狐二尾
      :actor_id => 102, :denominator => 2,
      :question => ["[Kitsune]\nHey, hey, you should make me a companion toooo! I'll show you my kitsune ninja arts!", "youko_fc1", 0],
      :yes => ["[Kitsune]\nYaaay! I'm your companion! Mufufu, I'll do my beeest!", "youko_fc1", 1],
      :no => ["[Kitsune]\nErk!", "youko_fc1", 2],
    },
    47 => { # かむろ二尾
      :actor_id => 103, :denominator => 2,
      :question => ["[Kamuro]\nUm, may I accompany you? I'm inexperienced, but I will do my best.", "kamuro_fc1", 0],
      :yes => ["[Kamuro]\nTh-thank you very much! I'll wholeheartedly support you with my kitsune secret arts!", "kamuro_fc1", 1],
      :no => ["[Kamuro]\nI-I'm sorry...", "kamuro_fc1", 2],
    },
    48 => { # クモ娘
      :actor_id => 104, :denominator => 5,
      :question => ["[Spider Girl]\nFufuu, won't you make me your companion? I'll make all your obstacles my prey.", "kumo_fc1", 0],
      :yes => ["[Spider Girl]\nAhaa, yippee! ♪ Now I can have all I can eat. ♪", "kumo_fc1", 1],
      :no => ["[Spider Girl]\nWhat? ...If I take this out on someone else, it'll be your fault!", "kumo_fc1", 2],
    },
    49 => { # ミミック娘
      :actor_id => 105, :denominator => 5,
      :question => ["[Mimic]\nI'm tired of being a shut-in... Hey, will you take me on a trip too?", "mimic_fc1", 0],
      :yes => ["[Mimic]\nMy first time going to the outside world... Protect me well, okay?", "mimic_fc1", 0],
      :no => ["[Mimic]\nFine, I'll be a shut-in forever...", "mimic_fc1", 1],
    },
    52 => { # ナマコ娘
      :actor_id => 107, :denominator => 4,
      :question => ["[Sea Cucumber Girl]\nSea cucumbers sometimes want to travel the world. Hey, could you take me on an adventure too?", "namako_fc1", 0],
      :yes => ["[Sea Cucumber Girl]\nI'll get to taste things from around the world with my sea cucumber body... Fufuu, I'm looking forward to it.", "namako_fc1", 1],
      :no => ["[Sea Cucumber Girl]\n...Fine. I'll attack a man in revenge.", "namako_fc1", 2],
    },
    53 => { # 貝娘
      :actor_id => 108, :denominator => 4,
      :question => ["[Shellfish Girl]\nBeloved, would you please marry me?", "kai_fc1", 0],
      :yes => ["[Shellfish Girl]\nI'm so happy! I'll follow you anywhere, my husband. ♪", "kai_fc1", 1],
      :no => ["[Shellfish Girl]\nSomeday I will surely sway you into becoming my husband, you'll see...", "kai_fc1", 2],
    },
    54 => { # カニ娘
      :actor_id => 109, :denominator => 3,
      :question => ["[Crab Girl]\nHey, take me with you too. When you get dirty, I'll service you with plenty of bubbles. ♪", "kani_fc1", 0],
      :yes => ["[Crab Girl]\nAhahaa, I'll be in your care from now on. Please let me know when you get dirty. ♪", "kani_fc1", 1],
      :no => ["[Crab Girl]\nHmph! I hate you!", "kani_fc1", 2],
    },
    55 => { # スライムベス娘
      :actor_id => 110, :denominator => 2,
      :question => ["[Slime Beth]\nIf I follow you, will I get to eat a looot of things?", "slimelord_fc1", 4],
      :yes => ["[Slime Beth]\nYaaay! I'll melt and eat anythiiing. ♪", "slimelord_fc1", 1],
      :no => ["[Slime Beth]\nI want to eaaat...", "slimelord_fc1", 2],
    },
    56 => { # スイカ娘
      :actor_id => 111, :denominator => 4,
      :question => ["[Watermelon Girl]\nHey, I want you to take me on an adventure toooo.", "suika_fc1", 0],
      :yes => ["[Watermelon Girl]\nYaaay, yippee! You have to stop splitting watermelons now, okay?", "suika_fc1", 1],
      :no => ["[Watermelon Girl]\n...You don't like watermelons?", "suika_fc1", 2],
    },
    57 => { # ウツボカズラ娘
      :actor_id => 112, :denominator => 4,
      :question => ["[Pitcher Plant Girl]\nIf I go with you, I'll get to eat a lot of different prey. Hey, please take me with you.", "utubo_fc1", 0],
      :yes => ["[Pitcher Plant Girl]\nI'm looking forward to eating insects from around the world. ...I'll eat bigger things too, of course.", "utubo_fc1", 1],
      :no => ["[Pitcher Plant Girl]\nI'll dissolve you someday...", "utubo_fc1", 3],
    },
    58 => { # ラミア
      :actor_id => 113, :denominator => 3,
      :question => ["[Lamia]\nI'm going to travel the world as well. Hey, you'll take me too, won't you?", "lamia_fc1", 0],
      :yes => ["[Lamia]\nYou'll feed me properly, right? ...Well then, nice to meet you.", "lamia_fc1", 1],
      :no => ["[Lamia]\nYou're pretty rude. Refusing to let ME accompany you...", "lamia_fc1", 2],
    },
    59 => { # ワカメ娘
      :actor_id => 114, :denominator => 4,
      :question => ["[Seaweed Girl]\nSway, sway... I want to go too...", "wakame_fc1", 0],
      :yes => ["[Seaweed Girl]\nEven though I'm seaweed, thank you...", "wakame_fc1", 1],
      :no => ["[Seaweed Girl]\nSway, sway, sway...", "wakame_fc1", 2],
    },
    60 => { # クラゲ娘
      :actor_id => 115, :denominator => 4,
      :question => ["[Jellyfish Girl]\nI also... want to adventure...", "kurage_fc1", 0],
      :yes => ["[Jellyfish Girl]\nTraveling the world sounds fun...", "kurage_fc1", 1],
      :no => ["[Jellyfish Girl]\nDisappointing...", "kurage_fc1", 0],
    },
    61 => { # イソギンチャク娘
      :actor_id => 116, :denominator => 4,
      :question => ["[Sea Anemone Girl]\nFufuu, you please me. I shall become your companion.", "iso_fc1", 0],
      :yes => ["[Sea Anemone Girl]\nLeaving the sea for the first time... Fufuu, I'm looking forward to it.", "iso_fc1", 1],
      :no => ["[Sea Anemone Girl]\nYou don't need my strength? How humiliating...", "iso_fc1", 2],
    },
    62 => { # アンコウ娘
      :actor_id => 117, :denominator => 4,
      :question => ["[Anglerfish Girl]\n..........", "ankou_fc1", 0],
      :yes => ["[Anglerfish Girl]\nNice to... meet you...", "ankou_fc1", 0],
      :no => ["[Anglerfish Girl]\n..........", "ankou_fc1", 0],
    },
    64 => { # 17ページ
      :actor_id => 119, :denominator => 3,
      :question => ["[Page 17]\nLet me accompany you too...", "page17_fc1", 0],
      :yes => ["[Page 17]\nI'll be in your care from now on...", "page17_fc1", 0],
      :no => ["[Page 17]\nRegrettable...", "page17_fc1", 0],
    },
    65 => { # 257ページ
      :actor_id => 120, :denominator => 4,
      :question => ["[Page 257]\nOh my, what a fine gentleman. May I accompany you as well?", "page257_fc1", 0],
      :yes => ["[Page 257]\nFufuu... It's a pleasure to meet you.", "page257_fc1", 1],
      :no => ["[Page 257]\nYou don't need my strength? That's disappointing...", "page257_fc1", 2],
    },
    67 => { # シスターラミア
      :actor_id => 122, :denominator => 4,
      :question => ["[Sister Lamia]\nI see now that you are a righteous person. Would you please forgive me and allow me to travel with you?", "sisterlamia_fc1", 0],
      :yes => ["[Sister Lamia]\nI appreciate your generous heart. Now, let us spread the teachings of the Goddess around the world.", "sisterlamia_fc1", 4],
      :no => ["[Sister Lamia]\nIt seems I was mistaken. Goddess, please let me meet some kind people.", "sisterlamia_fc1", 3],
    },
    68 => { # シスキュバス
      :actor_id => 123, :denominator => 4,
      :question => ["[Succubus Nun]\nIt just so happens that I'm also traveling the world. Would you like to travel together?", "sisccubus_fc1", 0],
      :yes => ["[Succubus Nun]\nThat's very reassuring. Please use my power to its fullest.", "sisccubus_fc1", 1],
      :no => ["[Succubus Nun]\nAre our paths not intertwined? How disappointing...", "sisccubus_fc1", 2],
    },
    69 => { # アリクイ娘
      :actor_id => 124, :denominator => 4,
      :question => ["[Anteater Girl]\nEven though I'm not good at combat, could you take me with you? I'm sure my long tongue will be useful...", "arikui_fc1", 0],
      :yes => ["[Anteater Girl]\nI'll do my best, so don't abandon me.", "arikui_fc1", 1],
      :no => ["[Anteater Girl]\nSo I'm useless after all...", "arikui_fc1", 2],
    },
    70 => { # グリズリー娘
      :actor_id => 125, :denominator => 3,
      :question => ["[Grizzly Bear Girl]\nRoaaar! I want to go with you!", "grizzly_fc1", 0],
      :yes => ["[Grizzly Bear Girl]\nRoaaar! Let's gooo!", "grizzly_fc1", 1],
      :no => ["[Grizzly Bear Girl]\nRawr... You meanie...", "grizzly_fc1", 2],
    },
    71 => { # XX-7
      :actor_id => 126, :denominator => 4,
      :question => ["[XX-7]\nMay I accompany you?", "XX-7_fc1", 0],
      :yes => ["[XX-7]\nIn that case, I wll obey.", "XX-7_fc1", 0],
      :no => ["[XX-7]\nDisappointing...", "XX-7_fc1", 0],
    },
    72 => { # リトルバグ
      :actor_id => 127, :denominator => 4,
      :question => ["[Little Bug]\nHey! Take me too!", "littlebug_fc1", 0],
      :yes => ["[Little Bug]\nYippee! Now I can get out of here!", "littlebug_fc1", 0],
      :no => ["[Little Bug]\nAm I gonna to be stuck here forever...?", "littlebug_fc1", 2],
    },
    73 => { # キャンサーロイド
      :actor_id => 128, :denominator => 5,
      :question => ["[Canceroid]\nHuman, please take me outside. I promise to work hard.", "kaniloid_fc1", 0],
      :yes => ["[Canceroid]\nThank you. Let me prove my capability.", "kaniloid_fc1", 1],
      :no => ["[Canceroid]\nHow narrow minded...", "kaniloid_fc1", 2],
    },
    75 => { # ゴースト
      :actor_id => 130, :denominator => 3,
      :question => ["[Ghost Girl]\nMe too... Take me with you...", "ghost_fc1", 0],
      :yes => ["[Ghost Girl]\nEven though I'm a ghost, it's nice to meet you...", "ghost_fc1", 1],
      :no => ["[Ghost Girl]\nOhhh, now I have a grudge...", "ghost_fc1", 0],
    },
    76 => { # 呪いの人形娘
      :actor_id => 131, :denominator => 3,
      :question => ["[Cursed Doll]\nBig brother... I want to play more...", "doll_fc1", 0],
      :yes => ["[Cursed Doll]\nUfufuu, we'll be together forever...", "doll_fc1", 1],
      :no => ["[Cursed Doll]\nI want to play... I want to play...", "doll_fc1", 2],
    },
    77 => { # ゾンビ剣士
      :actor_id => 132, :denominator => 3,
      :question => ["[Zombie Swordsman]\nI also... want to go...", "zonbe_fc2", 0],
      :yes => ["[Zombie Swordsman]\nThis sword... is yours.", "zonbe_fc2", 0],
      :no => ["[Zombie Swordsman]\nThis sword will just rust away in here...", "zonbe_fc2", 0],
    },
    78 => { # ゾンビ娘
      :actor_id => 133, :denominator => 4,
      :question => ["[Zombie Girl]\nOhh... Take us... with you...", "zonbe_fc3", 0],
      :yes => ["[Zombie Girl]\nLet's go... together...", "zonbe_fc3", 0],
      :no => ["[Zombie Girl]\n..........", "zonbe_fc3", 2],
    },
    84 => { # エルフ
      :actor_id => 136, :denominator => 3,
      :question => ["[Elf]\nYou look like you could use some help. Shall I accompany you on your travels?", "elf_fc1", 0],
      :yes => ["[Elf]\nI thought as much. Well then, I shall protect you with my bow!", "elf_fc1", 1],
      :no => ["[Elf]\n...Hmph. It doesn't matter to me either way.", "elf_fc1", 2],
    },
    85 => { # ブラウニーズ
      :actor_id => 137, :denominator => 4,
      :question => ["[Brownies]\nHey, big bro, let's be friends. ♪", "braunys_fc1", 6],
      :yes => ["[Brownies]\nYaaay! Let's play together. ♪", "braunys_fc1", 7],
      :no => ["[Brownies]\nWe want to be friends...", "braunys_fc2", 0],
    },
    86 => { # ツインズフェアリー
      :actor_id => 138, :denominator => 4,
      :question => ["[Twin Fairies]\nHey, we want you to take us too. We'll protect you with fairy power!", "tfairy_fc1", 0],
      :yes => ["[Twin Fairies]\nEven we can be helpful! We'll show you the power of fairies!", "tfairy_fc1", 1],
      :no => ["[Twin Fairies]\nEven if we are fairies... we can be usefulll...", "tfairy_fc1", 2],
    },
    87 => { # フェアリーズ
      :actor_id => 139, :denominator => 4,
      :question => ["[Fairies]\nHey, hey, let's be friends. ♪", "fairys_fc1", 0],
      :yes => ["[Fairies]\nYaaay! Everyone! This guy is gonna play with us!", "fairys_fc1", 0],
      :no => ["[Fairies]\nMeanieee!　Meanieee!", "fairys_fc1", 2],
    },
    95 => { # タランチュラ娘
      :actor_id => 140, :denominator => 4,
      :question => ["[Tarantula Girl]\nHey, can I come with you too? I'm pretty confident when it comes to battle...", "taran_fc1", 0],
      :yes => ["[Tarantula Girl]\nI'll be in your care from now on. I'll do my best.", "taran_fc1", 1],
      :no => ["[Tarantula Girl]\nDo you dislike women with a spider for their lower half?", "taran_fc1", 2],
    },
    96 => { # ミノタウロス娘
      :actor_id => 141, :denominator => 3,
      :question => ["[Minotauros]\nYou're pretty strong, despite your appearance. Hey, take me with you too!", "mino_fc1", 1],
      :yes => ["[Minotauros]\nI burn a lot of energy, so I'll be depending on you for meals!", "mino_fc1", 0],
      :no => ["[Minotauros]\nHey, hey, you're bullshitting me, right?!", "mino_fc1", 2],
    },
    97 => { # バンダースナッチ娘
      :actor_id => 142, :denominator => 4,
      :question => ["[Bandersnatch Girl]\nYou're strong... I'll go with you too...", "bander_fc1", 0],
      :yes => ["[Bandersnatch Girl]\nI'll defeat all of your enemies...", "bander_fc1", 0],
      :no => ["[Bandersnatch Girl]\nI see... That's unfortunate...", "bander_fc1", 2],
    },
    99 => { # サボレス
      :actor_id => 144, :denominator => 3,
      :question => ["[Sables]\nHey, will you make me part of your crew as well?", "saboresu_fc1", 0],
      :yes => ["[Sables]\nAhahaa, nice to meet youuu!", "saboresu_fc1", 1],
      :no => ["[Sables]\nWhaaat?! Meanieee!", "saboresu_fc1", 2],
    },
    100 => { # ムカデ娘
      :actor_id => 145, :denominator => 4,
      :question => ["[Centipede Girl]\n...Do you want to take me on your adventure?", "mukade_fc1", 0],
      :yes => ["[Centipede Girl]\nI will show you that centipedes can be more than just unlikeable.", "mukade_fc1", 1],
      :no => ["[Centipede Girl]\nWell, I am a centipede, something that is despised...", "mukade_fc1", 2],
    },
    101 => { # サソリ娘
      :actor_id => 146, :denominator => 3,
      :question => ["[Scorpion Girl]\nI'm bored of the desert. Could you take me somewhere else?", "sasori_fc1", 0],
      :yes => ["[Scorpion Girl]\nI'm quite strong, even in places other than the desert. Fufuu, nice to meet you.", "sasori_fc1", 1],
      :no => ["[Scorpion Girl]\nFine, I'll live in the desert forever.", "sasori_fc1", 2],
    },
    102 => { # サボテン娘
      :actor_id => 147, :denominator => 4,
      :question => ["[Cactus Girl]\nUfufuu, you're quite the gentleman. Will you have me by your side?", "saboten_fc1", 0],
      :yes => ["[Cactus Girl]\nLet your enemies know that even a beautiful cactus still has thorns.", "saboten_fc1", 1],
      :no => ["[Cactus Girl]\nSuch humiliation... Someday I shall return the favor with all of my thorns.", "saboten_fc1", 2],
    },
    103 => { # ダチョウ娘
      :actor_id => 148, :denominator => 3,
      :question => ["[Ostrich Girl]\nHey, hey, take me with you too! I can't fly, but I can run really fast!", "datyou_fc1", 0],
      :yes => ["[Ostrich Girl]\nYaaay! I'll give it all I've got!", "datyou_fc1", 3],
      :no => ["[Ostrich Girl]\nI knew it. So it's no good if I can't fly, is it?", "datyou_fc1", 2],
    },
    104 => { # ランプの魔女
      :actor_id => 149, :denominator => 4,
      :question => ["[Lamp Genie]\nWill you listen to my wish? I would like to be one of your attendants.", "lamp_fc1", 0],
      :yes => ["[Lamp Genie]\nFufuu, I'll never leave your side. My power is yours to use.", "lamp_fc1", 1],
      :no => ["[Lamp Genie]\nYou don't want my power? Well then, I will quietly take my leave.", "lamp_fc1", 2],
    },
    105 => { # ミイラ娘
      :actor_id => 150, :denominator => 3,
      :question => ["[Mummy Girl]\nHero, release me from this pyramid...", "mummy_fc1", 0],
      :yes => ["[Mummy Girl]\nLet's go together, hero...", "mummy_fc1", 1],
      :no => ["[Mummy Girl]\nYou don't need my power...?", "mummy_fc1", 2],
    },
    106 => { # コブラ娘
      :actor_id => 151, :denominator => 4,
      :question => ["[Cobra Girl]\nYou're strong... Could you take me along as well?", "kobura_fc1", 0],
      :yes => ["[Cobra Girl]\nI wonder what kind of vast world lies beyond the desert? Fufuu, I can't wait.", "kobura_fc1", 1],
      :no => ["[Cobra Girl]\nIs it because this dry place really suits me?", "kobura_fc1", 2],
    },
    107 => { # ネフェルラミアス
      :actor_id => 152, :denominator => 4,
      :question => ["[Nefertiti Lamias]\nYou're pretty nice. Would you take care of us sisters?", "lamias_fc2", 4],
      :yes => ["[Nefertiti Lamias]\nThe four of us will be your strength. So, you as well... Can you guess?", "lamias_fc2", 4],
      :no => ["[Nefertiti Lamias]\nHmph, you're an unreliable man...", "lamias_fc2", 4],
    },
    111 => { # ワニ娘
      :actor_id => 154, :denominator => 4,
      :question => ["[Crocodile Girl]\nHey, can I be your companion too?", "wani_fc1", 0],
      :yes => ["[Crocodile Girl]\nWell then, nice to meet you.", "wani_fc1", 1],
      :no => ["[Crocodile Girl]\nThat's unfortunate... Well, maybe next time.", "wani_fc1", 2],
    },
    113 => { # デビルファイター
      :actor_id => 156, :denominator => 3,
      :question => ["[Devil Fighter]\nWill you take me on your adventure too? I may be dressed embarrassingly, but I am strong, ok?", "d_fighter_fc1", 0],
      :yes => ["[Devil Fighter]\nWell then, I'll be in your care from now on. ...If I can, I would also like to change my clothes.", "d_fighter_fc1", 1],
      :no => ["[Devil Fighter]\nI-is that so... Well then, goodbye.", "d_fighter_fc1", 0],
    },
    114 => { # 大蜘蛛
      :actor_id => 157, :denominator => 4,
      :question => ["[Large Spider]\nHey, can I tag along with you?", "oogumo_fc1", 0],
      :yes => ["[Large Spider]\nI'm gonna be someone you can all depend on! I'm pretty strong, you know.", "oogumo_fc1", 1],
      :no => ["[Large Spider]\nHmph. Do what you want!", "oogumo_fc1", 2],
    },
    115 => { # サックボア
      :actor_id => 158, :denominator => 4,
      :question => ["[Suck Vore]\n...........", "suckvore_fc1", 2],
      :yes => ["[Suck Vore]\n...........", "suckvore_fc1", 2],
      :no => ["[Suck Vore]\n...........", "suckvore_fc1", 2],
    },
    116 => { # アイアンメイデン
      :actor_id => 159, :denominator => 5,
      :question => ["[Iron Maiden]\n...........", "ironmaiden_fc1", 0],
      :yes => ["[Iron Maiden]\n...........", "ironmaiden_fc1", 1],
      :no => ["[Iron Maiden]\n...........", "ironmaiden_fc1", 0],
    },
    117 => { # ワームビレッジャ
      :actor_id => 160, :denominator => 4,
      :question => ["[Worm Villager]\n...I want to suck more. Take me too.", "wormv_fc1", 0],
      :yes => ["[Worm Villager]\nI get to suck more... More, more...", "wormv_fc1", 1],
      :no => ["[Worm Villager]\nThat's disappointing. I want to suck more...", "wormv_fc1", 2],
    },
    118 => { # ウーストレル
      :actor_id => 161, :denominator => 4,
      :question => ["[Ustrel]\nUfufuu, will you take me as well? Traveling around the world sounds quite interesting.", "ustrel_fc1", 0],
      :yes => ["[Ustrel]\nI'm looking forward to it. Fufufuu...", "ustrel_fc1", 1],
      :no => ["[Ustrel]\nSo that method doesn't work...", "ustrel_fc1", 2],
    },
    119 => { # 蜜壺
      :actor_id => 162, :denominator => 5,
      :question => ["[Honey Pot]\nHey, please take me on your adventure too. But I'm not going to leave my pot, of course.", "mitutubo_fc1", 0],
      :yes => ["[Honey Pot]\nTraveling the world in my pot... That's fun too, right?", "mitutubo_fc1", 1],
      :no => ["[Honey Pot]\nI hate you...", "mitutubo_fc1", 2],
    },
    121 => { # 小鬼
      :actor_id => 164, :denominator => 3,
      :question => ["[Oni]\nHey, can I come with you too? You can count on my strength!", "kooni_fc1", 0],
      :yes => ["[Oni]\nYippee! Nice to meet you! I'll crush all the bad guys with my club!", "kooni_fc1", 1],
      :no => ["[Oni]\nFine, I can travel as much as I want alone too!", "kooni_fc1", 3],
    },
    122 => { # オナホ娘
      :actor_id => 165, :denominator => 4,
      :question => ["[Onahole Girl]\nMay I stick with you as well? I'll be really useful when you've stored up a bunch. ♪", "onaho_fc1", 0],
      :yes => ["[Onahole Girl]\nAhaa, pleased to meet you. ♪ Let me know whenever you've built up some. ♪", "onaho_fc1", 0],
      :no => ["[Onahole Girl]\nDo you have some principles against perverted tools?", "onaho_fc1", 2],
    },
    123 => { # ナーキュバス
      :actor_id => 166, :denominator => 4,
      :question => ["[Naccubus]\nGeez, you're such a troublesome patient... Should I give you my full-time care?", "narcubus_fc1", 0],
      :yes => ["[Naccubus]\nWell then, it's a pleasure to meet you. If anything happens, you can depend on me. ♪", "narcubus_fc1", 3],
      :no => ["[Naccubus]\nGeez, you need to listen to your nurse...", "narcubus_fc1", 2],
    },
    125 => { # 百々目鬼
      :actor_id => 168, :denominator => 4,
      :question => ["[Dodomeki]\nYou're pretty interesting... I'll lend you my power as well.", "dodome_fc1", 0],
      :yes => ["[Dodomeki]\nWell then, I'll assist you. I hope you like the magical power of these eyes.", "dodome_fc1", 1],
      :no => ["[Dodomeki]\nHmph! I'm not upset!", "dodome_fc1", 2],
    },
    126 => { # リザードシーフ
      :actor_id => 169, :denominator => 3,
      :question => ["[Lizard Thief]\nI really like you. Hey, can I join your group too?", "lizardthief_fc1", 0],
      :yes => ["[Lizard Thief]\nOkay, starting today I'm also part of your outfit! I'll be in your care from now on!", "lizardthief_fc1", 0],
      :no => ["[Lizard Thief]\nIs it because I'm not strong enough? Then I'll ask again once I get stronger!", "lizardthief_fc1", 2],
    },
    127 => { # リザードシーフ
      :actor_id => 170, :denominator => 4,
      :question => ["[Lizard Thief]\nYou seem to be quite skilled... May I accompany you as well?", "lizardthief_fc2", 0],
      :yes => ["[Lizard Thief]\nFufuu... Please take care of me from now on. If you need a sword or a thief, leave it to me.", "lizardthief_fc2", 0],
      :no => ["[Lizard Thief]\nOh, that's unfortunate...", "lizardthief_fc2", 2],
    },
    129 => { # 蜃気楼娘
      :actor_id => 172, :denominator => 4,
      :question => ["[Mirage Girl]\nHey, could you take me with you too, please?", "sinkiro_fc1", 0],
      :yes => ["[Mirage Girl]\nYaaay! I'll do my beeest!", "sinkiro_fc1", 4],
      :no => ["[Mirage Girl]\nWaaah! Meaniiie!", "sinkiro_fc1", 3],
    },
    130 => { # アリジゴク娘
      :actor_id => 173, :denominator => 4,
      :question => ["[Antlion Girl]\nIf I'm with you, I'll probably get a lot of prey. You could be the best bait of all...", "arizigoku_fc1", 0],
      :yes => ["[Antlion Girl]\nFufuu... I'll have my pick of all the prey I can squeeze. Of course, I'll save you for last.", "arizigoku_fc1", 1],
      :no => ["[Antlion Girl]\nOh... Nothing good comes from talking...", "arizigoku_fc1", 2],
    },
    131 => { # サンドワーム娘
      :actor_id => 174, :denominator => 5,
      :question => ["[Sandworm]\nWith you... I want to go...", "sandw_fc1", 0],
      :yes => ["[Sandworm]\nNice to meet you...", "sandw_fc1", 1],
      :no => ["[Sandworm]\nAm I too big...?", "sandw_fc1", 2],
    },
    132 => { # デザートスキュラ
      :actor_id => 175, :denominator => 4,
      :question => ["[Desert Scylla]\nAhahaa, may I go with you as well?", "d_scylla_fc1", 0],
      :yes => ["[Desert Scylla]\nWell then, nice to meet youuu. ♪", "d_scylla_fc1", 1],
      :no => ["[Desert Scylla]\nWhat? How booorrriiing.", "d_scylla_fc1", 2],
    },
    134 => { # ヴィタエ
      :actor_id => 176, :denominator => 5,
      :question => ["[Vitae]\nI'm tired of this place. Won't you please invite me to go to the outside world?", "vitae_fc1", 0],
      :yes => ["[Vitae]\nI'm really looking forward to it. What's waiting for me out there?", "vitae_fc1", 1],
      :no => ["[Vitae]\nOh my, how unfortunate...", "vitae_fc1", 2],
    },
    135 => { # ヴェータラ
      :actor_id => 177, :denominator => 5,
      :question => ["[Vetala]\nRejoice, boy. Big sister will be your companion.", "vetala_fc1", 0],
      :yes => ["[Vetala]\nNow I probably won't go hungry for a while. Ufufuu, does the boy want to be eaten too?", "vetala_fc1", 1],
      :no => ["[Vetala]\nOh? Do you want me to eat you that much?", "vetala_fc1", 2],
    },
    136 => { # ヴァルト
      :actor_id => 178, :denominator => 5,
      :question => ["[Valto]\nRequesting permission to accompany you.", "valt_fc1", 0],
      :yes => ["[Valto]\nAffirmative. I will accompany master from now on.", "valt_fc1", 0],
      :no => ["[Valto]\nRejected...", "valt_fc1", 2],
    },
    137 => { # シニファ
      :actor_id => 179, :denominator => 5,
      :question => ["[Shinifa]\nAaHAHAHAHAHAHA!", "sinifa_fc1", 0],
      :yes => ["[Shinifa]\nHyaHAHAHAHAHAHA!", "sinifa_fc1", 1],
      :no => ["[Shinifa]\nAHAHA...", "sinifa_fc1", 2],
    },
    138 => { # シャドー娘
      :actor_id => 180, :denominator => 4,
      :question => ["[Shadow Girl]\nTake... me...", "shadow_fc1", 0],
      :yes => ["[Shadow Girl]\nI shall possess you...", "shadow_fc1", 0],
      :no => ["[Shadow Girl]\nBitter... disappointment...", "shadow_fc1", 0],
    },
    139 => { # ガイストビーネ
      :actor_id => 181, :denominator => 4,
      :question => ["[Paintgeist]\nI wonder if this world is more vast than the one in my painting? Hey, will you take me outside?", "gaistvine_fc1", 0],
      :yes => ["[Paintgeist]\nWell then, let's go on an adventure.", "gaistvine_fc1", 0],
      :no => ["[Paintgeist]\nHmph... The one in this painting is great anyway.", "gaistvine_fc1", 1],
    },
    140 => { # キメラホムンクルス
      :actor_id => 182, :denominator => 4,
      :question => ["[Chimera Homunculus]\nI want to learn the meaning behind my existence... Will I learn it if I go with you...?", "c_homunculus_fc1", 0],
      :yes => ["[Chimera Homunculus]\nI shall accompany you...", "c_homunculus_fc1", 1],
      :no => ["[Chimera Homunculus]\nYou are... useless...", "c_homunculus_fc1", 2],
    },
    141 => { # アイアンメイデン改
      :actor_id => 183, :denominator => 5,
      :question => ["[Neo Iron Maiden]\nI will go too... so that I may squeeze sinners...", "ironmaiden_k_fc1", 0],
      :yes => ["[Neo Iron Maiden]\nYour enemies... Sinners... I will squeeze them all...", "ironmaiden_k_fc1", 1],
      :no => ["[Neo Iron Maiden]\nYou too... are a sinner...", "ironmaiden_k_fc1", 2],
    },
    142 => { # ジャンクドール娘
      :actor_id => 184, :denominator => 5,
      :question => ["[Junk Doll Girl]\nWill you take us along? Don't worry, we'll behave...", "junkdoll_fc2", 0],
      :yes => ["[Junk Doll Girl]\nThank you. Fufufufuu... I'll turn all of your enemies into junk.", "junkdoll_fc2", 0],
      :no => ["[Junk Doll Girl]\nYou don't need us? Is it because we're junk?", "junkdoll_fc2", 0],
    },
    151 => { # きのこ娘
      :actor_id => 191, :denominator => 4,
      :question => ["[Mushroom Girl]\nOh my, what a nice man.\nWould you take me away from here?", "kinoko_fc1", 0],
      :yes => ["[Mushroom Girl]\nI'll be doing my best for your sake from now on. Fufufu...", "kinoko_fc1", 0],
      :no => ["[Mushroom Girl]\nYou're so unkind...", "kinoko_fc1", 2],
    },
    152 => { # ノビスタドール娘
      :actor_id => 192, :denominator => 4,
      :question => ["[Novistador Girl]\nGive me food! Food!", "nobisutam_fc1", 0],
      :yes => ["[Novistador Girl]\nFood, please!", "nobisutam_fc1", 0],
      :no => ["[Novistador Girl]\nFood...", "nobisutam_fc1", 2],
    },
    153 => { # ウルスキュラ
      :actor_id => 193, :denominator => 4,
      :question => ["[Urscylla]\nHey, can you take me along as your ally too?", "u_scylla_fc1", 0],
      :yes => ["[Urscylla]\nAll right, we're allies from now on!", "u_scylla_fc1", 0],
      :no => ["[Urscylla]\nI see... That's too bad...", "u_scylla_fc1", 2],
    },
    154 => { # 襖
      :actor_id => 194, :denominator => 5,
      :question => ["[Fusama]\nHey, can I come along too?", "husuma_fc1", 0],
      :yes => ["[Fusama]\nAll right, let's work together.", "husuma_fc1", 0],
      :no => ["[Fusama]\nHow boring...", "husuma_fc1", 2],
    },
    155 => { # マーメイド
      :actor_id => 195, :denominator => 3,
      :question => ["[Mermaid]\nHey, take me along too.\nMy healing and water abilities are pretty useful, you know.", "mermaid_fc1", 0],
      :yes => ["[Mermaid]\nFufu... We're allies now, then.\nNice to meet you, Mr. Human.", "mermaid_fc1", 0],
      :no => ["[Mermaid]\nOh, too bad... You have enough healing, then?", "mermaid_fc1", 2],
    },
    156 => { # 商人マーメイド
      :actor_id => 196, :denominator => 4,
      :question => ["[Mermaid Trader]\nHey, take me with you!\nIt's always been my dream to do business around the world!", "s_mermaid_fc1", 0],
      :yes => ["[Mermaid Trader]\nAll right, nice to meet ya!\nI'll work my hardest!", "s_mermaid_fc1", 0],
      :no => ["[Mermaid Trader]\nWow, you're so narrow minded...", "s_mermaid_fc1", 2],
    },
    157 => { # 海賊マーメイド
      :actor_id => 197, :denominator => 2,
      :question => ["[Mermaid Pirate]\nDo you wanna hire me?\nIf you do, you'll flourish.", "k_mermaid_fc1", 0],
      :yes => ["[Mermaid Pirate]\nFufu, good choice.\nWith my help, your success is guaranteed!", "k_mermaid_fc1", 0],
      :no => ["[Mermaid Pirate]\nHmph. I see you don't have an eye for quality!", "k_mermaid_fc1", 2],
    },
    158 => { # 一反木綿娘
      :actor_id => 198, :denominator => 5,
      :question => ["[Ittan-Momen]\nYaay! I'll follow you too!", "ittanmomen_fc1", 0],
      :yes => ["[Ittan-Momen]\nYaay! I'll stick with you!", "ittanmomen_fc1", 0],
      :no => ["[Ittan-Momen]\nHorrible! Awful!", "ittanmomen_fc1", 2],
    },
    161 => { # ダゴン娘
      :actor_id => 199, :denominator => 4,
      :question => ["[Dagon Girl]\nUmm... Would you please take me with you?", "dagon_fc1", 0],
      :yes => ["[Dagon Girl]\nAll right, let's work together, then. ♪", "dagon_fc1", 0],
      :no => ["[Dagon Girl]\nToo bad...", "dagon_fc1", 2],
    },
    162 => { # 人魂娘
      :actor_id => 200, :denominator => 4,
      :question => ["[Hitodama Girl]\nHey, hey, make me your friend too!", "hitodama_fc1", 0],
      :yes => ["[Hitodama Girl]\nI may only be a soul, but it's nice to meet ya!", "hitodama_fc1", 0],
      :no => ["[Hitodama Girl]\nI'll curse you...", "hitodama_fc1", 2],
    },
    168 => { # カエル娘
      :actor_id => 206, :denominator => 4,
      :question => ["[Frog Girl]\nHey, make me your friend too.\nDespite how I look, I can fight, you know.", "kaeru_fc1", 0],
      :yes => ["[Frog Girl]\nAha, we'll work well together. ♪", "kaeru_fc1", 0],
      :no => ["[Frog Girl]\nRibbit, ribbit...", "kaeru_fc1", 2],
    },
    170 => { # ケンタウロス娘
      :actor_id => 207, :denominator => 4,
      :question => ["[Centaur Girl]\nJust for you, I'll be your ally.\nMy powerful legs will come in handy for sure.", "centa_fc1", 0],
      :yes => ["[Centaur Girl]\nWell, let's not be slow, then!", "centa_fc1", 0],
      :no => ["[Centaur Girl]\n...If that's your choice. I don't care...", "centa_fc1", 2],
    },
    171 => { # アルラウネ
      :actor_id => 208, :denominator => 2,
      :question => ["[Alraune]\nHowahowaaa...\nCan I follow you?", "alraune_fc1", 0],
      :yes => ["[Alraune]\nYaay! Thank you so much! ♪", "alraune_fc1", 0],
      :no => ["[Alraune]\nToo bad...", "alraune_fc1", 1],
    },
    172 => { # 御菊蟲
      :actor_id => 209, :denominator => 4,
      :question => ["[Chrysanthemum Bug]\nYou should take me along, big bro.\nI'm bored of this place...", "okikumusi_fc1", 0],
      :yes => ["[Chrysanthemum Bug]\nYay! Where will you take me? ♪", "okikumusi_fc1", 0],
      :no => ["[Chrysanthemum Bug]\nMeanie...", "okikumusi_fc1", 2],
    },
    173 => { # 幽霊娘
      :actor_id => 210, :denominator => 4,
      :question => ["[Spirit Girl]\nBring me along...\nI'll curse your enemies...", "ghost2_fc1", 0],
      :yes => ["[Spirit Girl]\nI'll always be by your side...", "ghost2_fc1", 1],
      :no => ["[Spirit Girl]\nI'll... Curse you...", "ghost2_fc1", 2],
    },
    174 => { # ハコイリ
      :actor_id => 211, :denominator => 5,
      :question => ["[Boxed Girl]\nThere's somewhere I want to go too.\nWill you escort me?", "hakoiri_fc1", 0],
      :yes => ["[Boxed Girl]\nWell then, let's go somewhere fun.\nI'm in your care. ♪", "hakoiri_fc1", 0],
      :no => ["[Boxed Girl]\nIt's awful to refuse a lady's request...", "hakoiri_fc1", 2],
    },
    179 => { # 濡れ女
      :actor_id => 214, :denominator => 4,
      :question => ["[Nure-onna]\nYou're interesting.\nWon't you make me your ally?", "nureonnna_fc1", 0],
      :yes => ["[Nure-onna]\nFufufu, good answer.\nVery well, I'll go with you.", "nureonnna_fc1", 0],
      :no => ["[Nure-onna]\nHmph. I guess I'm not good enough for you...", "nureonnna_fc1", 2],
    },
    180 => { # ハイミノタウロス
      :actor_id => 215, :denominator => 3,
      :question => ["[High Minotauros]\nFufu, such an energetic traveler, aren't you?\nWill you let this nice lady help you?", "h_mino_fc1", 0],
      :yes => ["[High Minotauros]\nFufu... Nice to meet you.\nI may look soft, but I'm really strong. ♪", "h_mino_fc1", 3],
      :no => ["[High Minotauros]\nIt's unreasonable to do it all by yourself...", "h_mino_fc1", 1],
    },
    181 => { # ミズタウロス
      :actor_id => 216, :denominator => 4,
      :question => ["[Misstauros]\nArara, such an energetic boy...\nShall I also lend you a hand?", "m_mino_fc1", 0],
      :yes => ["[Misstauros]\nLet's be allies, then.\nWhen you're in trouble, rely on me.", "m_mino_fc1", 0],
      :no => ["[Misstauros]\n...Are you really okay with that?", "m_mino_fc1", 2],
    },
    182 => { # ジニタウロス
      :actor_id => 217, :denominator => 4,
      :question => ["[Genitauros]\nWhew, well done.\nI can go along with you too.", "zinitauros_fc1", 0],
      :yes => ["[Genitauros]\nI'm quite a dextrous member of the Minotauros tribe.\nI may not be as powerful, but you can count on me!", "zinitauros_fc1", 0],
      :no => ["[Genitauros]\nIs it because I don't have muscles?", "zinitauros_fc1", 2],
    },
    185 => { # くのいちエルフ
      :actor_id => 219, :denominator => 4,
      :question => ["[Kunoichi Elf]\nTake me along on your adventure.\nI'll continue my training journey with you.", "kunoitielf_fc1", 0],
      :yes => ["[Kunoichi Elf]\nI'm your comrade now.\nLet's try my Ninjutsu in every country!", "kunoitielf_fc1", 0],
      :no => ["[Kunoichi Elf]\nIs my Ninjutsu unnecessary?\nWhat a depressing notion...", "kunoitielf_fc1", 2],
    },
    186 => { # サムライエルフ
      :actor_id => 220, :denominator => 4,
      :question => ["[Samurai Elf]\nOho, aren't you something...\nIt'd be good practice to go along with you.", "samuraielf_fc1", 0],
      :yes => ["[Samurai Elf]\nVery good.\nLet's continue together.", "samuraielf_fc1", 0],
      :no => ["[Samurai Elf]\nI see. How unfortunate.", "samuraielf_fc1", 2],
    },
    187 => { # 雪女
      :actor_id => 221, :denominator => 3,
      :question => ["[Yuki-Onna]\nI'll let you invite me to your party.\But you mustn't tell anyone about tonight...", "yukionna_fc1", 0],
      :yes => ["[Yuki-Onna]\nWell then, I'll go with you.\nJust make sure you keep your promise.", "yukionna_fc1", 0],
      :no => ["[Yuki-Onna]\nI see... That's all right...", "yukionna_fc1", 2],
    },
    188 => { # ねこまた
      :actor_id => 222, :denominator => 2,
      :question => ["[Nekomata]\nUnyaa! Nyaa! Nyaanyaa!", "nekomata_fc1", 2],
      :yes => ["[Nekomata]\nNyaa! Nyaa! Nyaa!", "nekomata_fc1", 2],
      :no => ["[Nekomata]\nFuuuuuu!", "nekomata_fc1", 1],
    },
    189 => { # あかなめ
      :actor_id => 223, :denominator => 3,
      :question => ["[Akaname]\nHey, take us along.\nYou're traveling the world, aren't you?", "akaname_fc2", 1],
      :yes => ["[Akaname]\nSo exciting! Traveling the world!\nLet's get going right now!", "akaname_fc2", 2],
      :no => ["[Akaname]\nWe just wanted to lick the whole world...\nIt's no fair taking it all for yourself...", "akaname_fc2", 3],
    },
    190 => { # 河童
      :actor_id => 224, :denominator => 3,
      :question => ["[Kappa]\nKapapa!\nHey, bring me along too!", "kappa_fc1", 0],
      :yes => ["[Kappa]\nKapapa!\nNice to meet ya!", "kappa_fc1", 0],
      :no => ["[Kappa]\nKapapa...", "kappa_fc1", 2],
    },
    191 => { # 二口娘
      :actor_id => 225, :denominator => 3,
      :question => ["[Futakuchi Girl]\nUm, I'd also like to travel the world...\nI'm sure there are lots of tasty things out there, right...?", "hutakuti_fc1", 5],
      :yes => ["[Futakuchi Girl]\nThank you so much!\nI'm already hungry...", "hutakuti_fc1", 5],
      :no => ["[Futakuchi Girl]\nHauu... I'm so hungry...\nI've been left behind again...", "hutakuti_fc1", 7],
    },
    193 => { # 巫女ラミア
      :actor_id => 227, :denominator => 4,
      :question => ["[Miko Lamia]\nDo you want a miko as an ally?\nI may be young, but I'm quite skilled.", "mikolamia_fc1", 0],
      :yes => ["[Miko Lamia]\nAll right, I'll go with you.\nMy dances will bring you victory.", "mikolamia_fc1", 0],
      :no => ["[Miko Lamia]\nI see...\nAt the very least, I shall pray for you on your journey.", "mikolamia_fc1", 2],
    },
    194 => { # 巫女アラクネ
      :actor_id => 228, :denominator => 4,
      :question => ["[Miko Arachne]\nTake me along too.\nI'm sure my strength will be useful.", "mikoarachne_fc1", 0],
      :yes => ["[Miko Arachne]\nI'm good with time magic.\nNice to meet you. ♪", "mikoarachne_fc1", 1],
      :no => ["[Miko Arachne]\nI see.\nHumans truly do hate spiders...", "mikoarachne_fc1", 3],
    },
    195 => { # 毛倡妓
      :actor_id => 229, :denominator => 4,
      :question => ["[Kejourou]\nJust for you, I'll help out.\nI'll go with you, so be grateful.", "kezyorou_fc1", 0],
      :yes => ["[Kejourou]\nFufu... I'm looking forward to this.\nIt's my first time leaving Yamatai.", "kezyorou_fc1", 0],
      :no => ["[Kejourou]\nI see... You're a boring boy, you know that?", "kezyorou_fc1", 2],
    },
    197 => { # マジカルアゲハ
      :actor_id => 231, :denominator => 5,
      :question => ["[Magical Butterfly]\nHey, I want to go with you tooooo! ♪", "m_batterfly_fc1", 0],
      :yes => ["[Magical Butterfly]\nYaay, nice to meet yooou! ♪", "m_batterfly_fc1", 0],
      :no => ["[Magical Butterfly]\nMeanie...", "m_batterfly_fc1", 2],
    },
    200 => { # マジカルピクシー
      :actor_id => 232, :denominator => 5,
      :question => ["[Magical Pixie]\nHey, can I be your ally too?\nI can help out with my magic.", "m_fairy_fc1", 0],
      :yes => ["[Magical Pixie]\nGet a good look at my magic!\nI'll crush any enemy!", "m_fairy_fc1", 0],
      :no => ["[Magical Pixie]\nYou have awful judgement! Geez!", "m_fairy_fc1", 2],
    },
    204 => { # カマキリ娘
      :actor_id => 234, :denominator => 4,
      :question => ["[Mantis Girl]\nGIGIGI... Come with?", "kamakiri_fc1", 0],
      :yes => ["[Mantis Girl]\nEnemy. Catch and eat.\nAllies, increasing. GIGIGI.", "kamakiri_fc1", 0],
      :no => ["[Mantis Girl]\nGIGI...", "kamakiri_fc1", 2],
    },
    205 => { # カイコ娘
      :actor_id => 235, :denominator => 4,
      :question => ["[Silkworm Girl]\nCan I be your ally too?\nAmong insects, I'm the smart one.", "kaiko_fc1", 0],
      :yes => ["[Silkworm Girl]\nFufu, my adventure begins here.\nLet's put all our enemies in cocoons.", "kaiko_fc1", 0],
      :no => ["[Silkworm Girl]\nI don't care. I'll just be in a cocoon here...", "kaiko_fc1", 2],
    },
    206 => { # アルラ・アルム
      :actor_id => 236, :denominator => 4,
      :question => ["[Alra Arum]\nWill you take me as well?\nI'm pretty good at magic.", "a_alm_fc1", 0],
      :yes => ["[Alra Arum]\nAll right, let's get along.\nI'm not good at offense, but I'll support you.", "a_alm_fc1", 0],
      :no => ["[Alra Arum]\nI'm sorry I can't help you...", "a_alm_fc1", 2],
    },
    208 => { # アルラ・ボア
      :actor_id => 237, :denominator => 4,
      :question => ["[Alra Vore]\nAha, you're quite interesting.\nFollowing you seems like it would be fun...", "a_vore_fc1", 0],
      :yes => ["[Alra Vore]\nGood, leave it to me.\nIt seems I'll be eating a lot from now on...", "a_vore_fc1", 0],
      :no => ["[Alra Vore]\nWhaaaat? Boring...", "a_vore_fc1", 2],
    },
    216 => { # モス娘
      :actor_id => 243, :denominator => 4,
      :question => ["[Moth Girl]\nCan I come with you too?\nMy moth scale attacks should be useful.", "moss_fc1", 0],
      :yes => ["[Moth Girl]\nGreat, nice to meet you.\nMy moth scales will confuse your enemies!", "moss_fc1", 0],
      :no => ["[Moth Girl]\nSo you don't want pests for companions?", "moss_fc1", 2],
    },
    219 => { # スズメバチ娘
      :actor_id => 244, :denominator => 3,
      :question => ["[Hornet Girl]\nTAKE ME WITH YOU.\nI'LL FOLLOW YOUR COMMANDS.", "suzumebati_fc1", 0],
      :yes => ["[Hornet Girl]\nI'LL FOLLOW ANYWHERE.\nDESTROY OUR ENEMIES.", "suzumebati_fc1", 0],
      :no => ["[Hornet Girl]\nDISCARDED...", "suzumebati_fc1", 1],
    },
    225 => { # ジェリー娘
      :actor_id => 246, :denominator => 4,
      :question => ["[Jelly Girl]\nIs it interesting outside the spring...?\nJust once, I'd like to go outside too...", "jelly_fc1", 0],
      :yes => ["[Jelly Girl]\nThe outside world seems very interesting...\nI'm sure there are lots of delicious things, too...", "jelly_fc1", 0],
      :no => ["[Jelly Girl]\nI want to go outside the spring...", "jelly_fc1", 2],
    },
    226 => { # ブロブ娘
      :actor_id => 247, :denominator => 4,
      :question => ["[Blob Girl]\nHey, bring me along too.\nI want to eat a lot of different thiiings. ♪", "blob_fc1", 0],
      :yes => ["[Blob Girl]\nYay! It's time for a buffet! ♪", "blob_fc1", 0],
      :no => ["[Blob Girl]\nIt's fine, I'll just eat stray humans here, then...", "blob_fc1", 2],
    },
    230 => { # パープルスライム
      :actor_id => 248, :denominator => 5,
      :question => ["[Purple Slime]\nRecently, being a leader has been burdensome.\nIf possible, I'd like to follow someone else for a change.", "slime_purple_fc1", 0],
      :yes => ["[Purple Slime]\nPlease take care of my kin too.\nUse our power as you wish.", "slime_purple_fc1", 0],
      :no => ["[Purple Slime]\nI suppose I should remain the leader, then...", "slime_purple_fc1", 2],
    },
    233 => { # アリ娘
      :actor_id => 249, :denominator => 3,
      :question => ["[Ant Girl]\nLET US AID YOU.\nLET US TRAVEL TOGETHER.", "ant_fc1", 0],
      :yes => ["[Ant Girl]\nCOUNT ON US.\nWE SHALL WORK HARD.", "ant_fc1", 0],
      :no => ["[Ant Girl]\nARE WE NOT NEEDED?", "ant_fc1", 1],
    },
    234 => { # オートマータ娘
      :actor_id => 250, :denominator => 2,
      :question => ["[Automata Girl]\nMaster, please take me.\nI have battle programs installed as well.", "artm_fc1", 0],
      :yes => ["[Automata Girl]\nMy special skill is suicide bombing.\nThank you, master.", "artm_fc1", 0],
      :no => ["[Automata Girl]\nUnderstood. I shall blow myself up right away.", "artm_fc1", 1],
    },
    235 => { # パイズリ人形
      :actor_id => 251, :denominator => 4,
      :question => ["[Paizuri Doll]\n.........", "paizuridoll_fc1", 0],
      :yes => ["[Paizuri Doll]\n.........", "paizuridoll_fc1", 0],
      :no => ["[Paizuri Doll]\n.........", "paizuridoll_fc1", 2],
    },
    236 => { # スキュラ
      :actor_id => 252, :denominator => 3,
      :question => ["[Scylla]\nYou're interesting.\nCan I be one of your companions?", "scylla_fc1", 0],
      :yes => ["[Scylla]\nFufu, nice to meet you.", "scylla_fc1", 0],
      :no => ["[Scylla]\nSuch a rude boy! You'll regret this!", "scylla_fc1", 0],
    },
    237 => { # メデューサ
      :actor_id => 253, :denominator => 4,
      :question => ["[Medusa]\nRejoice, for I will lend you my strength! I take it there are no complaints?", "medusa_fc1", 0],
      :yes => ["[Medusa]\nGood.\nEveryone who bothers me will be turned to stone.", "medusa_fc1", 0],
      :no => ["[Medusa]\n...I'll turn you to stone. Prepare yourself...", "medusa_fc1", 2],
    },
    238 => { # あげは娘
      :actor_id => 254, :denominator => 4,
      :question => ["[Butterfly Girl]\nMake me your friend too, big bro.\nDespite how I look, I have confidence in my strength.", "ageha_fc1", 0],
      :yes => ["[Butterfly Girl]\nUfufu, I'm looking forward to working with you.\nLet's do our best together.", "ageha_fc1", 0],
      :no => ["[Butterfly Girl]\nSo I can't be your companion.\nIt feels a little lonely...", "ageha_fc1", 2],
    },
    239 => { # ブロム娘
      :actor_id => 255, :denominator => 4,
      :question => ["[Brom Girl]\nHey, can you fulfill my wish?\nI'd like to have a normal body, free of poison.", "blom_fc1", 0],
      :yes => ["[Brom Girl]\nWill you look for a way to make my body normal?\nThen I'll travel and help out too!", "blom_fc1", 1],
      :no => ["[Brom Girl]\nI see. So you can't do it either...", "blom_fc1", 2],
    },
    240 => { # ウォーマー
      :actor_id => 256, :denominator => 3,
      :question => ["[Warmer]\nTake me... too...", "warmer_fc1", 0],
      :yes => ["[Warmer]\nTogether... go...\nGreetings...", "warmer_fc1", 0],
      :no => ["[Warmer]\nLeft... behind...", "warmer_fc1", 2],
    },
    241 => { # グール
      :actor_id => 257, :denominator => 5,
      :question => ["[Ghoul]\nAuuuu...\nTogether...", "gool_fc1", 0],
      :yes => ["[Ghoul]\nHungry... Food...", "gool_fc1", 0],
      :no => ["[Ghoul]\nUwaa... Ahhh...", "gool_fc1", 0],
    },
    244 => { # フェイクジェリー
      :actor_id => 258, :denominator => 5,
      :question => ["[Fake Jelly]\nUhm, could you take me as well?\nAn adventure sounds nice right now...", "fakejelly_fc1", 0],
      :yes => ["[Fake Jelly]\nFufu, thank you.\nI'm so excited to travel on an adventure!", "fakejelly_fc1", 0],
      :no => ["[Fake Jelly]\nAra, how rude...", "fakejelly_fc1", 2],
    },
    245 => { # ウィングハーピー
      :actor_id => 259, :denominator => 4,
      :question => ["[Wing Harpy]\nCan I go with you?", "w_hapy_fc1", 0],
      :yes => ["[Wing Harpy]\nAll right, let's work together!", "w_hapy_fc1", 1],
      :no => ["[Wing Harpy]\nColdhearted...", "w_hapy_fc1", 0],
    },
    246 => { # ナイトハーピー
      :actor_id => 260, :denominator => 4,
      :question => ["[Harpy Knight]\nI have pride in my abilities. Would you take me along with you?", "k_hapy_fc1", 0],
      :yes => ["[Harpy Knight]\nI'm confident in my spear and my feathers!\nCount on me!", "k_hapy_fc1", 0],
      :no => ["[Harpy Knight]\nSo you don't need help?\nAre you confident, or do you just look down on me...?", "k_hapy_fc1", 2],
    },
    247 => { # マッドゴーレム娘
      :actor_id => 261, :denominator => 5,
      :question => ["[Mud Golem Girl]\nUPDATING MASTER INFORMATION...\nWILL YOU BE MY NEW MASTER?", "madgolem_fc1", 0],
      :yes => ["[Mud Golem Girl]\nUNDERSTOOD.\nINFORMATION UPDATED.", "madgolem_fc1", 0],
      :no => ["[Mud Golem Girl]\nMASTER SEARCH CONTINUING...", "madgolem_fc1", 0],
    },
    249 => { # ハナビラカマキリ娘
      :actor_id => 263, :denominator => 4,
      :question => ["[Flower Mantis Girl]\nI'll go with you.\nI'll slice apart every enemy with my sickles...", "h_kamakiri_fc1", 0],
      :yes => ["[Flower Mantis Girl]\nI'll go with you...\nuntil my clothes are stained red in blood...", "h_kamakiri_fc1", 0],
      :no => ["[Flower Mantis Girl]\nI see. I'm not good enough to be an ally...", "h_kamakiri_fc1", 2],
    },
    250 => { # ブラックゴーレム
      :actor_id => 264, :denominator => 4,
      :question => ["[Blood Golem]\nHey, make me an ally too!", "bgolem_fc1", 0],
      :yes => ["[Blood Golem]\nIt's my dream to evolve into the ultimate homunculus!\nNice to meet yooooou!", "bgolem_fc1", 1],
      :no => ["[Blood Golem]\nPlease take me aloooong!", "bgolem_fc1", 2],
    },
    251 => { # 狐獣
      :actor_id => 265, :denominator => 4,
      :question => ["【Feral Kitsune】\nあたしが一緒に行ってあげるわ。\nあんた、とっても頼りなさそうだもの……", "kitunezyu_fc1", 0],
      :yes => ["【Feral Kitsune】\nありがと……\nあ、足とか引っ張らないでよね！", "kitunezyu_fc1", 0],
      :no => ["【Feral Kitsune】\nふん、なによ！", "kitunezyu_fc1", 2],
    },
    252 => { # くのいち三尾
      :actor_id => 266, :denominator => 4,
      :question => ["【Three-Tailed Kunoichi】\nお前、なかなかに面白い奴よ……\nよかろう、私が力を貸してやろう。", "kunoitisanbi_fc1", 0],
      :yes => ["【Three-Tailed Kunoichi】\nふふっ……我が忍法をしかと見るが良い。\nお前が望めば、くのいちの性技も見せてやるぞ……？", "kunoitisanbi_fc1", 0],
      :no => ["【Three-Tailed Kunoichi】\n侮られたものだな。\nしかし、食い下がるのも詮無き事……", "kunoitisanbi_fc1", 2],
    },
    253 => { # もののふ四尾
      :actor_id => 267, :denominator => 4,
      :question => ["【Four-Tailed Samurai】\n大した腕だな……\n貴様の元で、我が刃を磨いてみたいものだが。", "mononohuyonbi_fc1", 0],
      :yes => ["【Four-Tailed Samurai】\nならば、共に征こう。\n互いの刃、磨き抜くために！", "mononohuyonbi_fc1", 0],
      :no => ["【Four-Tailed Samurai】\nもののふの刃とは孤独なもの……か。", "mononohuyonbi_fc1", 2],
    },
    256 => { # 溶岩娘
      :actor_id => 269, :denominator => 4,
      :question => ["【Lava Girl】\n溶岩だけれど、たまには外出したい……\n私の望み、叶えてくれる？", "yougan_fc1", 0],
      :yes => ["【Lava Girl】\nこれから、よろしく。\n冷えないように注意しないと……", "yougan_fc1", 0],
      :no => ["【Lava Girl】\nやっぱり、私は火山にいた方が良いわね……", "yougan_fc1", 2],
    },
    257 => { # デーモンラミア
      :actor_id => 270, :denominator => 4,
      :question => ["【Demon Lamia】\nねぇ、あたしを仲間にしなさいよ。\nラミアの上位種である私が、力を貸してあげるわ。", "lamiad_fc1", 0],
      :yes => ["【Demon Lamia】\n頑丈な方だけど、ひどい目には合わせないでよね。\n大切にしてくれたら、お返しに巻き付いてあげるから……♪", "lamiad_fc1", 1],
      :no => ["【Demon Lamia】\n見る目のない人間は、こっちから願い下げよ。", "lamiad_fc1", 2],
    },
    258 => { # デーモンスキュラ
      :actor_id => 271, :denominator => 4,
      :question => ["【Demon Scylla】\n私を仲間にして貰いましょうか。\nこの触手で、敵を薙ぎ倒しますので……", "scyllad_fc1", 0],
      :yes => ["【Demon Scylla】\nふふっ、そうこなくては。\nこの触手、好きに使って下さいね……", "scyllad_fc1", 0],
      :no => ["【Demon Scylla】\nあなたを、いつかこの触手の餌食に……", "scyllad_fc1", 2],
    },
    259 => { # セイレーン
      :actor_id => 272, :denominator => 3,
      :question => ["【Siren】\n私を連れて行きなさい。\n私の歌、ずっと聞いていたいでしょう……？", "seiren_fc1", 0],
      :yes => ["【Siren】\nそれじゃあ、今日から仲間ね。\n私の歌で骨抜きにならないようにしなさい……", "seiren_fc1", 0],
      :no => ["【Siren】\nいつか私の歌で骨抜きにしてやるわ……", "seiren_fc1", 2],
    },
    260 => { # サンゴ娘
      :actor_id => 273, :denominator => 5,
      :question => ["【Coral Girl】\n.........", "sango_fc1", 0],
      :yes => ["【Coral Girl】\n.........", "sango_fc1", 0],
      :no => ["【Coral Girl】\n.........", "sango_fc1", 0],
    },
    261 => { # ヒトデ娘
      :actor_id => 274, :denominator => 4,
      :question => ["【Starfish Girl】\n私も連れて行ってくれない？\nたまには陸にも上がりたいし……", "hitode_fc1", 0],
      :yes => ["【Starfish Girl】\nふふっ、嬉しいわ……\nようやく、海からおさらばね。", "hitode_fc1", 0],
      :no => ["【Starfish Girl】\n駄目なの……？\n心が狭いのね、あなたは。", "hitode_fc1", 2],
    },
    265 => { # アークジェリー
      :actor_id => 278, :denominator => 4,
      :question => ["【Arch Jelly】\nあたしも、ついていく……\n一緒に、行こ？", "arkjelly_fc1", 0],
      :yes => ["【Arch Jelly】\nよろしくね。\nいっぱい遊ぼうね？", "arkjelly_fc1", 0],
      :no => ["【Arch Jelly】\n電気ビリビリしちゃえ……", "arkjelly_fc1", 2],
    },
    266 => { # エルダースキュラ
      :actor_id => 279, :denominator => 4,
      :question => ["【Elder Scylla】\n私も連れ行きなさい……\n最上級のスキュラの力、見せてあげるわ……", "e_scylla_fc1", 0],
      :yes => ["【Elder Scylla】\nそれでは、よろしく……\nいくらでも頼っていいわよ……", "e_scylla_fc1", 0],
      :no => ["【Elder Scylla】\n見る目がないのね、あなた……", "e_scylla_fc1", 2],
    },
    268 => { # サキュバス
      :actor_id => 281, :denominator => 5,
      :question => ["【Succubus】\nねぇ、サキュバスハーレムを従える気はない？\n毎日が天国になるわよ……うふふっ。", "succubuses_fc2", 0],
      :yes => ["【Succubus】\nそれじゃあ、今日からあなたのためのハーレムよ。\nでも、ご機嫌取りは忘れないでね……", "succubuses_fc2", 0],
      :no => ["【Succubus】\nハーレムいらないって、ストイックなの？\n禁欲なんて、面白くないわよ？", "succubuses_fc2", 2],
    },
    272 => { # メイキュバス
      :actor_id => 282, :denominator => 5,
      :question => ["【Maccubus】\n私も同行しましょう、ご主人様。\n御奉仕は任せて下さいませ。", "maycubbus_fc1", 0],
      :yes => ["【Maccubus】\n今後とも、よろしくお願い致します。\nさっそく御奉仕致しましょうか？", "maycubbus_fc1", 0],
      :no => ["【Maccubus】\nそうですか、残念です……\nまた機会がありましたら、ぜひどうぞ。", "maycubbus_fc1", 2],
    },
    279 => { # マダムインセクト
      :actor_id => 290, :denominator => 4,
      :question => ["【Madame Insect】\n強い殿方は大好きですわ……\n私も連れて行って下さいませんか？", "madaminsect_fc1", 0],
      :yes => ["【Madame Insect】\nふふっ、よろしくお願いします。\n時には、精を吸わせて頂きたいものですわ……", "madaminsect_fc1", 0],
      :no => ["【Madame Insect】\nレディの誘いを断るなんて……\n紳士の素養には欠けておられるのですね。", "madaminsect_fc1", 2],
    },
    280 => { # マダムアンブレラ
      :actor_id => 291, :denominator => 4,
      :question => ["【Madame Umbrella】\nふふっ……私を仲間にして下さらない？\nここで獲物を待つのも、少し飽きましたわ。", "madamumbrella_fc1", 0],
      :yes => ["【Madame Umbrella】\nこちらから男狩りに出向くのも、乙なもの。\nふふふっ、楽しみですわ……", "madamumbrella_fc1", 0],
      :no => ["【Madame Umbrella】\n私を外には出さないと……？\nここで飼い殺しとは、私以上に残酷なのですね。", "madamumbrella_fc1", 2],
    },
    281 => { # アラディア
      :actor_id => 292, :denominator => 5,
      :question => ["【Aradia】\nこの私が、手を貸して差し上げましょうか……？", "aradia_fc1", 0],
      :yes => ["【Aradia】\nそれでは、ご一緒しましょうか……", "aradia_fc1", 0],
      :no => ["【Aradia】\n残念……ではまた会いましょう。", "aradia_fc1", 0],
    },
    283 => { # バジリスク娘
      :actor_id => 297, :denominator => 4,
      :question => ["【Basilisk】\n面白い人間だな……\nよし、私も仲間になってやろう。", "basilisk_fc1", 0],
      :yes => ["【Basilisk】\nそう言えば、火山の外に出るのは久方振りか……\nまあいい、よろしく頼むぞ。", "basilisk_fc1", 0],
      :no => ["【Basilisk】\n私の力は不要なのか？\nずいぶんと自信があるのだな……", "basilisk_fc1", 2],
    },
    284 => { # ドラゴン娘
      :actor_id => 298, :denominator => 4,
      :question => ["【Dragon Girl】\n貴様ほどの手練れは初めてだ。\nいいだろう、私を連れて行くがいい。", "dragon_fc1", 0],
      :yes => ["【Dragon Girl】\n荒ぶる竜の力、見せてやろう！", "dragon_fc1", 0],
      :no => ["【Dragon Girl】\nなんという屈辱……\nこの私を、門前払いとはな。", "dragon_fc1", 2],
    },
    287 => { # ゼラチナスキューブ娘
      :actor_id => 299, :denominator => 5,
      :question => ["【Gelatinous Cube Girl】\nうふふっ、私も仲間にしてくれません？\nご褒美に、しばらく包み込んであげますから……", "gelatinous_fc1", 0],
      :yes => ["【Gelatinous Cube Girl】\nうふっ、これからよろしくお願いしますね。\nご褒美は、仲良くなってから……", "gelatinous_fc1", 0],
      :no => ["【Gelatinous Cube Girl】\nばか～！", "gelatinous_fc1", 2],
    },
    288 => { # 妖鬼
      :actor_id => 300, :denominator => 4,
      :question => ["【Youki】\n鬼退治されちゃ、仕方ねーな。\nよし、お前の家来になってやるよ！", "youki_fc1", 0],
      :yes => ["【Youki】\nよしきた、あたしはお前の家来だ。\nちょうど暴れ足りなかったところだぜ……！", "youki_fc1", 0],
      :no => ["【Youki】\nそうかよ……\nこのパワー、どこへぶつければいいんだ？", "youki_fc1", 2],
    },
    289 => { # 虎娘
      :actor_id => 301, :denominator => 5,
      :question => ["【Tiger Girl】\n大した強さだな、気に入ったぞ……\nこの私も、仲間として連れて行くがいい。", "tora_fc1", 0],
      :yes => ["【Tiger Girl】\n竜と並び立つ虎の力、しかと見るがいい。\n断じて、竜などに遅れは取らんぞ……！", "tora_fc1", 1],
      :no => ["【Tiger Girl】\nお前も、虎が竜に劣るなどと思っているのか……？", "tora_fc1", 2],
    },
    290 => { # ヴァンパイア
      :actor_id => 302, :denominator => 3,
      :question => ["【Vampire】\nあなた、大した強さね。\n夜の貴族を従わせるに相応しいわ……", "vampire_fc1", 0],
      :yes => ["【Vampire】\nよろしく……ふふふっ。\nたまには、血を御馳走してね。", "vampire_fc1", 0],
      :no => ["【Vampire】\n夜の禍々しさはお気に召さないのかしら……？", "vampire_fc1", 2],
    },
    291 => { # ジェライラ
      :actor_id => 303, :denominator => 5,
      :question => ["【Jellaila】\n私を連れていく気はありませんか……？", "jeraira_fc1", 0],
      :yes => ["【Jellaila】\nでは、出逢いの曲を奏でましょう……", "jeraira_fc1", 0],
      :no => ["【Jellaila】\n別れの曲を奏でましょう……", "jeraira_fc1", 2],
    },
    292 => { # リボ・リボ
      :actor_id => 304, :denominator => 5,
      :question => ["【Ribo-Ribo】\n同行の許可を願う……", "libolibo_fc1", 0],
      :yes => ["【Ribo-Ribo】\nこれより、同行する……", "libolibo_fc1", 0],
      :no => ["【Ribo-Ribo】\n通常業務に戻る……", "libolibo_fc1", 2],
    },
    293 => { # アンフィル
      :actor_id => 305, :denominator => 5,
      :question => ["【Amphil】\n私を連れて行ってよぉ……", "anfill_fc1", 0],
      :yes => ["【Amphil】\nそう、それでいいの……", "anfill_fc1", 0],
      :no => ["【Amphil】\nあなたじゃ、ダメね……", "anfill_fc1", 2],
    },
    294 => { # ツィンケル
      :actor_id => 306, :denominator => 5,
      :question => ["【Twinkel】\nあたし達もついて行きたいです……\n外はとっても広いんでしょう？", "twinkel_fc1", 0],
      :yes => ["【Twinkel】\nあはははっ、嬉しいわぁ……\nとっても楽しみよねぇ。", "twinkel_fc1", 0],
      :no => ["【Twinkel】\n面白くないわね……", "twinkel_fc1", 2],
    },
    299 => { # シーアネモネ
      :actor_id => 307, :denominator => 4,
      :question => ["【Sea Anemone Girl】\n私を連れて行ってくれない？\nご褒美に、挟み込んであげるから……？", "seaanemone_fc1", 0],
      :yes => ["【Sea Anemone Girl】\nそれじゃあ、今後ともよろしく。\n挟まれたくなった時は、私に言いなさい。", "seaanemone_fc1", 0],
      :no => ["【Sea Anemone Girl】\nそれじゃあ、勝手にやらせてもらうわ……", "seaanemone_fc1", 0],
    },
    300 => { # 水龍娘
      :actor_id => 308, :denominator => 5,
      :question => ["【Sea Dragon Girl】\n儂を仲間にする気はないか？\n特別に力を貸してやってもいいぞ……", "suiryu_fc1", 0],
      :yes => ["【Sea Dragon Girl】\nやったぁ！　よろしくね……\n……いや、よろしく頼むぞ。", "suiryu_fc1", 1],
      :no => ["【Sea Dragon Girl】\nえっ？　連れて行ってくれないのぉ……？", "suiryu_fc1", 2],
    },
    301 => { # マンタ娘
      :actor_id => 309, :denominator => 5,
      :question => ["【Manta Girl】\nこの私を連れて行け。\n必ずや、役に立ってみせよう。", "manta_fc1", 1],
      :yes => ["【Manta Girl】\nマンタの力、その目で見よ！", "manta_fc1", 1],
      :no => ["【Manta Girl】\nそれがお前の選択か……", "manta_fc1", 2],
    },
    302 => { # イッカク娘
      :actor_id => 310, :denominator => 5,
      :question => ["【Narwhal Girl】\n大海の主であるこの私が、手を貸してやろう。\nありがたく思うが良い……", "ikkaku_fc1", 1],
      :yes => ["【Narwhal Girl】\nお前の道を邪魔する者は、全てこの角の餌食よ。\n幾多の船と同じような運命を辿るのだ……", "ikkaku_fc1", 1],
      :no => ["【Narwhal Girl】\nなんという屈辱……\nこの私の協力を拒むとは！", "ikkaku_fc1", 2],
    },
    303 => { # トリックフェアリー
      :actor_id => 311, :denominator => 5,
      :question => ["【Trick Fairy】\nねぇねぇ、あたしも連れてって！\nいっぱいイタズラしたいから～♪", "trickfairy_fc1", 0],
      :yes => ["【Trick Fairy】\nわ～い、イタズラするぞ～♪", "trickfairy_fc1", 0],
      :no => ["【Trick Fairy】\nイタズラしたいよ～！", "trickfairy_fc1", 2],
    },
    304 => { # アマゾネスエルフ
      :actor_id => 312, :denominator => 4,
      :question => ["【Elf Amazoness】\n大した腕だな、お前。\n私も手伝ってやろう……", "amazoneself_fc1", 0],
      :yes => ["【Elf Amazoness】\n力仕事は私に任せろ。\nそれじゃあ、行くぞ！", "amazoneself_fc1", 0],
      :no => ["【Elf Amazoness】\n私の助けはいらないのか……？\nずいぶんと自信家だな。", "amazoneself_fc1", 2],
    },
    305 => { # カーバンクル娘
      :actor_id => 313, :denominator => 4,
      :question => ["【Carbuncle Girl】\n獣の魔術師という異名を持つ私が、力を貸しましょう。\nまさか、不服という訳ではないですよね……？", "carbuncle_fc1", 0],
      :yes => ["【Carbuncle Girl】\nよろしい、それでは共に行きましょう。\n獣類だからといって、荒々しい扱いは御免被りますよ。", "carbuncle_fc1", 0],
      :no => ["【Carbuncle Girl】\n獣には力とスピードを期待すると……？", "carbuncle_fc1", 2],
    },
    306 => { # ジャイガンテック娘
      :actor_id => 314, :denominator => 5,
      :question => ["【Gigantic Girl】\nお前、強いなー！\nあたしも行くぞ！　行くぞ！", "gigantic_fc1", 0],
      :yes => ["【Gigantic Girl】\nよっしゃー！　いっぱい暴れるぞー！", "gigantic_fc1", 0],
      :no => ["【Gigantic Girl】\nうおおおおー！", "gigantic_fc1", 2],
    },
    309 => { # フォレストアルラウネ
      :actor_id => 317, :denominator => 4,
      :question => ["【Forest Alraune】\n私も連れて行って……\n一度でいいから、世界を旅してみたいの。", "f_alraune_fc1", 0],
      :yes => ["【Forest Alraune】\nありがとう……\n世界の旅、とっても楽しみね。", "f_alraune_fc1", 0],
      :no => ["【Forest Alraune】\n世界を旅してみたかったな……", "f_alraune_fc1", 2],
    },
    310 => { # フォレストドリアード
      :actor_id => 318, :denominator => 4,
      :question => ["【Forest Dryad】\nどうか、私を仲間にしてくれないでしょうか。\n植物族は、自分だけでは遠出できないのです……", "f_dryad_fc1", 0],
      :yes => ["【Forest Dryad】\nありがとうございます……！\nご迷惑にならないよう、がんばります。", "f_dryad_fc1", 0],
      :no => ["【Forest Dryad】\nそうですか……\nやはり、ご迷惑ですよね。", "f_dryad_fc1", 2],
    },
    311 => { # ワルラウネ
      :actor_id => 319, :denominator => 4,
      :question => ["【Walraune】\nねぇ、あたしも仲間に入れてくれない？\n最近、ちょっと暴れ足りないのよね。", "walraune_fc1", 0],
      :yes => ["【Walraune】\nこれで、今日からあたしも仲間よ。ふふっ、退屈しなさそう……", "walraune_fc1", 0],
      :no => ["【Walraune】\n嫌な予感がする……？\nそれ、たぶん正解かもね。", "walraune_fc1", 2],
    },
    312 => { # ドリアード
      :actor_id => 320, :denominator => 3,
      :question => ["【Dryad】\nふわぁ、とっても強いんですね。\nあたしも、仲間にしてほしいです……", "dryad_fc1", 0],
      :yes => ["【Dryad】\nわーい、よろしくお願いします～！\nいっぱいがんばりますね～♪", "dryad_fc1", 0],
      :no => ["【Dryad】\nダメなんですか、残念です……", "dryad_fc1", 2],
    },
    313 => { # ドリアード
      :actor_id => 321, :denominator => 3,
      :question => ["【Dryad】\nあんた、とっても強いのね。\nあたしも、仲間になってあげるわ。", "dryad_fc1", 4],
      :yes => ["【Dryad】\nふふっ、よろしくね。\nたっぷりと暴れてやるわ……", "dryad_fc1", 4],
      :no => ["【Dryad】\nダメなの？　心の狭い男ね……", "dryad_fc1", 6],
    },
    316 => { # ナイトマーメイド
      :actor_id => 324, :denominator => 3,
      :question => ["【Mermaid Knight】\n相当な腕ね。\n私も、仲間にしてくれない？", "knight_mermaid_fc1", 0],
      :yes => ["【Mermaid Knight】\nこの剣、しばらくあなたに貸すわ。\n決して、失望はさせないからね……", "knight_mermaid_fc1", 0],
      :no => ["【Mermaid Knight】\n私の剣、頼りないの……？", "knight_mermaid_fc1", 2],
    },
    317 => { # ジェネラルマーメイド
      :actor_id => 325, :denominator => 4,
      :question => ["【Mermaid General】\n女王近衛の私が敗れるなんて……\nあんたの元で、少しばかり腕を磨きたいわ。", "g_marmaid_fc1", 0],
      :yes => ["【Mermaid General】\nふふ……これからよろしくね。\n近衛に相応しい実力を身につけてみせるわ。", "g_marmaid_fc1", 0],
      :no => ["【Mermaid General】\nあんた、冷たいのね……", "g_marmaid_fc1", 2],
    },
    318 => { # ローレライ
      :actor_id => 326, :denominator => 3,
      :question => ["【Lorelai】\n私も、一緒に行くわ……", "loreley_fc1", 0],
      :yes => ["【Lorelai】\nよろしくね……", "loreley_fc1", 0],
      :no => ["【Lorelai】\n私じゃ力不足……？", "loreley_fc1", 0],
    },
    321 => { # アラクネ
      :actor_id => 330, :denominator => 5,
      :question => ["【Arachne】\nねぇねぇ、あたし達も連れていってよ。\n迷惑はかけないからさぁ……", "arachnes_fc2", 0],
      :yes => ["【Arachne】\nわーい、よろしくね♪\n三人も養うなんて、甲斐性あるよねっ♪", "arachnes_fc2", 0],
      :no => ["【Arachne】\nさすがに三人は無理？\nまあ、仕方ないかな……", "arachnes_fc2", 2],
    },
    324 => { # あやし土蜘蛛
      :actor_id => 331, :denominator => 5,
      :question => ["【Tsuchigumo】\n大した腕ですね……\nこの私も、ご同行願えませんか？", "tutigumo_fc1", 0],
      :yes => ["【Tsuchigumo】\nご厚意に感謝します。\n恩には報いますよ、ふふふっ……", "tutigumo_fc1", 0],
      :no => ["【Tsuchigumo】\nそれがあなたの意向なら、別に構いませんよ……", "tutigumo_fc1", 2],
    },
    325 => { # アラクネロード
      :actor_id => 332, :denominator => 5,
      :question => ["【Arachne Lord】\n面白い人間だな……\nふふっ、私を連れて行くがいい。", "alakneload_fc1", 0],
      :yes => ["【Arachne Lord】\nさあ、行こうか。\n立ちはだかる者は、我が粘糸の餌食にしてやろう。", "alakneload_fc1", 0],
      :no => ["【Arachne Lord】\n無下に断られるとは、腹立たしいものだな……", "alakneload_fc1", 2],
    },
    326 => { # アトラク＝ナクア
      :actor_id => 333, :denominator => 5,
      :question => ["【Atlach-Nacha】\n私も力となりましょう……", "atlach_fc1", 0],
      :yes => ["【Atlach-Nacha】\nふふっ、よろしく……", "atlach_fc1", 0],
      :no => ["【Atlach-Nacha】\n残念です……", "atlach_fc1", 0],
    },
    328 => { # コンキスタ
      :actor_id => 335, :denominator => 4,
      :question => ["【Conquista】\n面白い、私が力になろう。", "conquista_fc1", 0],
      :yes => ["【Conquista】\nさあ、共に行こうか……", "conquista_fc1", 0],
      :no => ["【Conquista】\nくっ、無礼な！", "conquista_fc1", 2],
    },
    329 => { # ヴェンデッタ
      :actor_id => 336, :denominator => 4,
      :question => ["【Vendetta】\n私も手伝ってあげましょうか……？", "vendetta_fc1", 0],
      :yes => ["【Vendetta】\nそれでは、ご一緒しましょう……", "vendetta_fc1", 0],
      :no => ["【Vendetta】\n私では不服ですか……", "vendetta_fc1", 2],
    },
    330 => { # エルダーヴァンパイア
      :actor_id => 337, :denominator => 4,
      :question => ["【Elder Vampire】\n我は上級の吸血鬼……\n貴様に力を貸してやろう……", "e_vampire_fc1", 0],
      :yes => ["【Elder Vampire】\n我が力、あてにするがいい……", "e_vampire_fc1", 0],
      :no => ["【Elder Vampire】\n見くびられたものだ……", "e_vampire_fc1", 0],
    },
    334 => { # マスターシャドウ
      :actor_id => 342, :denominator => 4,
      :question => ["【Master Shadow】\n私を……\n連れて行きなさい……", "m_shadow_fc1", 0],
      :yes => ["【Master Shadow】\n誰も……あなたに手出しはさせない……", "m_shadow_fc1", 1],
      :no => ["【Master Shadow】\n取り憑いて……\n呪ってやる……", "m_shadow_fc1", 2],
    },
    335 => { # 煙々羅
      :actor_id => 343, :denominator => 5,
      :question => ["【Enenra】\n我の力が必要か……？\n望むなら、一緒に行ってやってもいいのだがな。", "enenra_fc1", 0],
      :yes => ["【Enenra】\nふむ、良い心がけだ。\n今後、よろしく頼むぞ。", "enenra_fc1", 0],
      :no => ["【Enenra】\nそ、そうか……\nふん、去る者は追わずだ。", "enenra_fc1", 2],
    },
    336 => { # 麒麟
      :actor_id => 344, :denominator => 5,
      :question => ["【麒麟】\n光栄に思うが良い。\n儂が力を貸してやろうぞ。", "kirin_fc1", 0],
      :yes => ["【麒麟】\nうむ、それで良いのじゃ。\nワシの雷は、いかなる敵も滅ぼすであろう。", "kirin_fc1", 0],
      :no => ["【麒麟】\n無礼な奴じゃな、貴様……", "kirin_fc1", 2],
    },
    337 => { # 蛇骨女
      :actor_id => 345, :denominator => 5,
      :question => ["【蛇骨女】\n随分と面白い人間よのう……\nこの私を、使ってみる気はないか？", "zyakotuonna_fc1", 1],
      :yes => ["【蛇骨女】\nそう、それでよい……\n私の力、しばらくお主に預けようぞ。", "zyakotuonna_fc1", 1],
      :no => ["【蛇骨女】\n妾が、そこらの小娘に劣るとでも……？", "zyakotuonna_fc1", 2],
    },
    338 => { # ベヒーモス娘
      :actor_id => 346, :denominator => 3,
      :question => ["【ベヒーモス娘】\nあたしも一緒に行ってやろう。\n最強の獣の力、まさか不要とは言わさんぞ……", "behemoth_fc1", 0],
      :yes => ["【ベヒーモス娘】\nよかろう、存分に暴れてやる。\nせいぜい巻き込まれんようにしろ……", "behemoth_fc1", 0],
      :no => ["【ベヒーモス娘】\nなんだと……！？\nこれほどの侮辱、生まれて初めてだ！", "behemoth_fc1", 2],
    },
    339 => { # ワイバーン
      :actor_id => 347, :denominator => 4,
      :question => ["【ワイバーン】\n特別に、この私が力を貸してやろう。\n飛竜を仲間にできる機会など、そうそうないぞ？", "wyvern_fc1", 0],
      :yes => ["【ワイバーン】\nふっ、お前は正しい選択をした。\n荒れ狂う飛竜の力、見せてやろう！", "wyvern_fc1", 0],
      :no => ["【ワイバーン】\nふん、拍子抜けだな……\nもういい、私は帰る。", "wyvern_fc1", 2],
    },
    340 => { # 巨竜娘
      :actor_id => 348, :denominator => 4,
      :question => ["【巨竜娘】\n一緒に、行ってもいい……？", "kyoryuu_fc1", 0],
      :yes => ["【巨竜娘】\nよろしくね……", "kyoryuu_fc1", 0],
      :no => ["【巨竜娘】\nだめ……？　大きすぎるから……？", "kyoryuu_fc1", 2],
    },
    341 => { # モンクサキュバス
      :actor_id => 349, :denominator => 4,
      :question => ["【モンクサキュバス】\nあんた、とっても強いじゃない。\nき～めた、あたしもついて行っちゃうから！", "monk_sucubuss_fc1", 0],
      :yes => ["【モンクサキュバス】\nそれじゃあ、よろしくね！\n邪魔する奴はボコボコにしてやるんだから！", "monk_sucubuss_fc1", 1],
      :no => ["【モンクサキュバス】\nえ～！？　なんでよ！\nあたしのどこがダメだって言うのよ！", "monk_sucubuss_fc1", 2],
    },
    342 => { # モンクデーモン
      :actor_id => 350, :denominator => 4,
      :question => ["【モンクデーモン】\n大した使い手ね、ボウヤ。\n私の武力も、従えてみる気はない？", "monk_demon_fc1", 0],
      :yes => ["【モンクデーモン】\nそう来ないとね……\nこれからは、あなたのために拳を振るってやるわ。", "monk_demon_fc1", 0],
      :no => ["【モンクデーモン】\nそう、お気に召さなかったみたいね……", "monk_demon_fc1", 2],
    },
    343 => { # スキュラサーバント
      :actor_id => 351, :denominator => 5,
      :question => ["【Scylla Servant】\n素晴らしい腕前ですね。\nこれより、私もご一緒しましょう……", "scylla_s_fc1", 0],
      :yes => ["【Scylla Servant】\nよろしいのですね？\nそれでは、よろしくお願いします。", "scylla_s_fc1", 0],
      :no => ["【Scylla Servant】\nそうですか……\nそれでは、これでお暇致します。", "scylla_s_fc1", 2],
    },
    344 => { # ヴィーヴル娘
      :actor_id => 352, :denominator => 5,
      :question => ["【ヴィーヴル娘】\nあんた、とても強いんだね。\n私も仲間にしてくれない……？", "vouivre_fc1", 0],
      :yes => ["【ヴィーヴル娘】\n妖魔には珍しい、聖なる力……\nあんたのため、使っちゃうから！", "vouivre_fc1", 1],
      :no => ["【ヴィーヴル娘】\n私のような半端者、いらないって事……？", "vouivre_fc1", 3],
    },
    351 => { # 氷の魔女
      :actor_id => 353, :denominator => 5,
      :question => ["【氷の魔女】\n仲間になってあげる……\n私の氷魔術、決して遅れは取らないわ……", "icemaze_fc1", 0],
      :yes => ["【氷の魔女】\nそれじゃあ、よろしく……\nあまり暑い場所には行かないでほしいわ。", "icemaze_fc1", 0],
      :no => ["【氷の魔女】\nふん、好きにすればいいわ……", "icemaze_fc1", 2],
    },
    352 => { # シロクマ娘
      :actor_id => 354, :denominator => 3,
      :question => ["【シロクマ娘】\nいっしょに、行くよ……\nここ、寒いし……", "shirokuma_fc1", 1],
      :yes => ["【シロクマ娘】\nこれから、一緒にぬくぬくしようね……♪", "shirokuma_fc1", 1],
      :no => ["【シロクマ娘】\nさむさむ……", "shirokuma_fc1", 2],
    },
    353 => { # 天使兵
      :actor_id => 355, :denominator => 3,
      :question => ["【天使兵】\nお前は、相当の使い手と見た。\n私も、仲間にしてもらえはしないか？", "angels_fc1", 0],
      :yes => ["【天使兵】\nそれでは、今後はお前に付き従おう。\n至らぬ身だが、精一杯働いてみせる。", "angels_fc1", 0],
      :no => ["【天使兵】\nそうか……\n所詮は最下級の天使だものな。", "angels_fc1", 2],
    },
    358 => { # トリニティ
      :actor_id => 356, :denominator => 5,
      :question => ["【トリニティ】\nああ、なんとたくましい方……\n我々も、付き従いましょう。", "trinity_fc1", 3],
      :yes => ["【トリニティ】\nそれでは、参りましょう。", "trinity_fc1", 3],
      :no => ["【トリニティ】\nそれでは、またいらして下さいね……", "trinity_fc1", 3],
    },
    361 => { # ウラヌス
      :actor_id => 357, :denominator => 5,
      :question => ["【ウラヌス】\nあなたは、正しき心を持っていますね。\n聖獣の力を持つ私が、共に行きましょう。", "uranus_fc1", 0],
      :yes => ["【ウラヌス】\nそれでは、共に行きましょう。\n頼りにしてもらって良いのですよ。", "uranus_fc1", 0],
      :no => ["【ウラヌス】\nそうですか……\nでは、私はこれで。", "uranus_fc1", 2],
    },
    362 => { # エリシエル
      :actor_id => 358, :denominator => 5,
      :question => ["【エリシエル】\n私を連れて行く気はありませんか？\n禁断の実、悪しき者達に振るまうは我が使命……", "erisiel_fc1", 0],
      :yes => ["【エリシエル】\nそれでは、これより私は仲間です。\n禁断の実、魔物共に振るまいましょう。", "erisiel_fc1", 0],
      :no => ["【エリシエル】\nそうですか……\nそれでは、仕方ありませんね。", "erisiel_fc1", 2],
    },
    363 => { # キューピッド
      :actor_id => 359, :denominator => 3,
      :question => ["【キューピッド】\nねぇ、あたしも連れていってよ～！\nもっともっと遊びた～い！", "cupid_fc1", 0],
      :yes => ["【キューピッド】\nわ～い、よろしくね～！\nお仕事も、手伝ってもらお～っと♪", "cupid_fc1", 0],
      :no => ["【キューピッド】\nひど～い、薄情だよ～！", "cupid_fc1", 2],
    },
    364 => { # ヴァルキリー
      :actor_id => 360, :denominator => 3,
      :question => ["【ヴァルキリー】\nあなたの腕は一流ね……\n側で監視する必要があるわ。", "valkyrie_fc1", 0],
      :yes => ["【ヴァルキリー】\nそれでは、私が同行するわ……\n私が監視している以上、妙な事はしないように。", "valkyrie_fc1", 0],
      :no => ["【ヴァルキリー】\nやましい事でもあるの？\nやはり、監視の必要があるようね……", "valkyrie_fc1", 2],
    },
    366 => { # ヘリエル
      :actor_id => 361, :denominator => 5,
      :question => ["【ヘリエル】\nあたしも、連れてってよ……\nだって、とっても面白そう……", "heriel_fc1", 0],
      :yes => ["【ヘリエル】\n後は私に任せてね……\n全部、天国送りにするから……", "heriel_fc1", 0],
      :no => ["【ヘリエル】\n嫌い……", "heriel_fc1", 2],
    },
    367 => { # アルシエル
      :actor_id => 362, :denominator => 5,
      :question => ["【アルシエル】\n共に征こう……\nイリアス様の教え、世に知らしめるのだ……", "arusiel_fc1", 0],
      :yes => ["【アルシエル】\n全ては、イリアス様のために……", "arusiel_fc1", 0],
      :no => ["【アルシエル】\nイリアス様を愚弄するのか……？", "arusiel_fc1", 2],
    },
    373 => { # キメラビースト
      :actor_id => 363, :denominator => 4,
      :question => ["【キメラビースト】\n統率者候補と認定。\n同行を、許可……？", "c_beast_fc1", 0],
      :yes => ["【キメラビースト】\n統率者情報、更新。\nこれより、同行する……", "c_beast_fc1", 0],
      :no => ["【キメラビースト】\n拒否……？", "c_beast_fc1", 1],
    },
    374 => { # S-2
      :actor_id => 364, :denominator => 4,
      :question => ["【S-2】\nあわあわ……\nあたしも、連れて行ってよ……", "c_s2_fc1", 0],
      :yes => ["【S-2】\nあわあわ、仲良くしてね……", "c_s2_fc1", 0],
      :no => ["【S-2】\nあわあわ……", "c_s2_fc1", 2],
    },
    375 => { # A-3
      :actor_id => 365, :denominator => 4,
      :question => ["【A-3】\nねぇ、私を連れて行ってくれない？\n元の体に戻る方法、見付けたいのよ……", "c_a3_fc1", 0],
      :yes => ["【A-3】\n手を貸して……\n私が、元の体に戻るために……", "c_a3_fc1", 0],
      :no => ["【A-3】\nずっとこの姿でいろと……そういうことね。", "c_a3_fc1", 0],
    },
    376 => { # AD-5
      :actor_id => 366, :denominator => 4,
      :question => ["【AD-5】\n仲間になろう……", "AD-5_fc1", 0],
      :yes => ["【AD-5】\n行こう……", "AD-5_fc1", 0],
      :no => ["【AD-5】\n.........", "AD-5_fc1", 0],
    },
    377 => { # Q-5
      :actor_id => 367, :denominator => 5,
      :question => ["【Q-5】\n外に出る……\nぐるぐる回る……", "q_5_fc1", 0],
      :yes => ["【Q-5】\nよろしく……ぐるぐるぐる……", "q_5_fc1", 0],
      :no => ["【Q-5】\nぐるぐる、ぐるぐる……", "q_5_fc1", 0],
    },
  }
end
